Color
…
*tibble(rows = rep(1:26, 26),
*      cols = sort(rep(1:26, 26)))
```
]]
.column[.content[

```
[1] 657
```

```
# A tibble: 676 x 2
    rows  cols
   <int> <int>
 1     1     1
 2     2     1
 3     3     1
 4     4     1
 5     5     1
 6     6     1
 7     7     1
 8     8     1
 9     9     1
10    10     1
# … with 666 more rows
```
…
tibble(rows = rep(1:26, 26),  
       cols = sort(rep(1:26, 26))) ->  
dat  

*dat$r_color <- NA; dat
```
]]
.column[.content[

```
[1] 657
```

```
# A tibble: 676 x 3
    rows  cols r_color
   <int> <int> <lgl>  
 1     1     1 NA     
 2     2     1 NA     
 3     3     1 NA     
 4     4     1 NA     
 5     5     1 NA     
 6     6     1 NA     
 7     7     1 NA     
 8     8     1 NA     
 9     9     1 NA     
10    10     1 NA     
# … with 666 more rows
```
…
dat$r_color <- NA; dat  
*dat$r_color[1:length(colors())] <- colors(); dat
```
]]
.column[.content[

```
[1] 657
```

```
# A tibble: 676 x 3
    rows  cols r_color
   <int> <int> <lgl>  
 1     1     1 NA     
 2     2     1 NA     
 3     3     1 NA     
 4     4     1 NA     
 5     5     1 NA     
 6     6     1 NA     
 7     7     1 NA     
 8     8     1 NA     
 9     9     1 NA     
10    10     1 NA     
# … with 666 more rows
```

```
# A tibble: 676 x 3
    rows  cols r_color      
   <int> <int> <chr>        
 1     1     1 white        
 2     2     1 aliceblue    
 3     3     1 antiquewhite 
 4     4     1 antiquewhite1
 5     5     1 antiquewhite2
 6     6     1 antiquewhite3
 7     7     1 antiquewhite4
 8     8     1 aquamarine   
 9     9     1 aquamarine1  
10    10     1 aquamarine2  
# … with 666 more rows
```
…
---

class: split-40
count: false

.column[.content[

```r
*dat
```
]]
.column[.content[

```
# A tibble: 676 x 3
    rows  cols r_color      
   <int> <int> <chr>        
 1     1     1 white        
 2     2     1 aliceblue    
 3     3     1 antiquewhite 
 4     4     1 antiquewhite1
 5     5     1 antiquewhite2
 6     6     1 antiquewhite3
 7     7     1 antiquewhite4
 8     8     1 aquamarine   
 9     9     1 aquamarine1  
10    10     1 aquamarine2  
# … with 666 more rows
```
…
