A ggplot2 grammar guide
…
class: split-40
count: false

.column[.content[

```r
# Option 2
*gapminder_2002   # data piped into
```
]]
.column[.content[

```
  # A tibble: 142 x 6
     country     continent  year lifeExp       pop gdpPercap
     <fct>       <fct>     <int>   <dbl>     <int>     <dbl>
   1 Afghanistan Asia       2002    42.1  25268405      727.
   2 Albania     Europe     2002    75.7   3508512     4604.
   3 Algeria     Africa     2002    71.0  31287142     5288.
   4 Angola      Africa     2002    41.0  10866106     2773.
   5 Argentina   Americas   2002    74.3  38331121     8798.
   6 Australia   Oceania    2002    80.4  19546792    30688.
   7 Austria     Europe     2002    79.0   8148312    32418.
   8 Bahrain     Asia       2002    74.8    656397    23404.
   9 Bangladesh  Asia       2002    62.0 135656790     1136.
  10 Belgium     Europe     2002    78.3  10311970    30486.
  # … with 132 more rows
```
…
---

class: split-40
count: false

.column[.content[

```r
*gapminder_2002
```
]]
.column[.content[

```
  # A tibble: 142 x 6
     country     continent  year lifeExp       pop gdpPercap
     <fct>       <fct>     <int>   <dbl>     <int>     <dbl>
   1 Afghanistan Asia       2002    42.1  25268405      727.
   2 Albania     Europe     2002    75.7   3508512     4604.
   3 Algeria     Africa     2002    71.0  31287142     5288.
   4 Angola      Africa     2002    41.0  10866106     2773.
   5 Argentina   Americas   2002    74.3  38331121     8798.
   6 Australia   Oceania    2002    80.4  19546792    30688.
   7 Austria     Europe     2002    79.0   8148312    32418.
   8 Bahrain     Asia       2002    74.8    656397    23404.
   9 Bangladesh  Asia       2002    62.0 135656790     1136.
  10 Belgium     Europe     2002    78.3  10311970    30486.
  # … with 132 more rows
```
…
---

class: split-40
count: false

.column[.content[

```r
*gapminder_2002
```
]]
.column[.content[

```
  # A tibble: 142 x 6
     country     continent  year lifeExp       pop gdpPercap
     <fct>       <fct>     <int>   <dbl>     <int>     <dbl>
   1 Afghanistan Asia       2002    42.1  25268405      727.
   2 Albania     Europe     2002    75.7   3508512     4604.
   3 Algeria     Africa     2002    71.0  31287142     5288.
   4 Angola      Africa     2002    41.0  10866106     2773.
   5 Argentina   Americas   2002    74.3  38331121     8798.
   6 Australia   Oceania    2002    80.4  19546792    30688.
   7 Austria     Europe     2002    79.0   8148312    32418.
   8 Bahrain     Asia       2002    74.8    656397    23404.
   9 Bangladesh  Asia       2002    62.0 135656790     1136.
  10 Belgium     Europe     2002    78.3  10311970    30486.
  # … with 132 more rows
```
…
