Facet
…
class: split-40
count: false

.left-panel-background-auto[

```r
*gapminder
```
]
 
.right-panel-background-auto[

```
  # A tibble: 1,704 x 6
     country     continent  year lifeExp      pop gdpPercap
     <fct>       <fct>     <int>   <dbl>    <int>     <dbl>
   1 Afghanistan Asia       1952    28.8  8425333      779.
   2 Afghanistan Asia       1957    30.3  9240934      821.
   3 Afghanistan Asia       1962    32.0 10267083      853.
   4 Afghanistan Asia       1967    34.0 11537966      836.
   5 Afghanistan Asia       1972    36.1 13079460      740.
   6 Afghanistan Asia       1977    38.4 14880372      786.
   7 Afghanistan Asia       1982    39.9 12881816      978.
   8 Afghanistan Asia       1987    40.8 13867957      852.
   9 Afghanistan Asia       1992    41.7 16317921      649.
  10 Afghanistan Asia       1997    41.8 22227415      635.
  # … with 1,694 more rows
```
…
.left-panel-background-auto[

```r
gapminder %>%  
* filter(year == 2002)
```
]
 
.right-panel-background-auto[

```
  # A tibble: 142 x 6
     country     continent  year lifeExp       pop gdpPercap
     <fct>       <fct>     <int>   <dbl>     <int>     <dbl>
   1 Afghanistan Asia       2002    42.1  25268405      727.
   2 Albania     Europe     2002    75.7   3508512     4604.
   3 Algeria     Africa     2002    71.0  31287142     5288.
   4 Angola      Africa     2002    41.0  10866106     2773.
   5 Argentina   Americas   2002    74.3  38331121     8798.
   6 Australia   Oceania    2002    80.4  19546792    30688.
   7 Austria     Europe     2002    79.0   8148312    32418.
   8 Bahrain     Asia       2002    74.8    656397    23404.
   9 Bangladesh  Asia       2002    62.0 135656790     1136.
  10 Belgium     Europe     2002    78.3  10311970    30486.
  # … with 132 more rows
```
…
class: split-40
count: false

.left-panel-pyramid-auto[

```r
*gapminder
```
]
 
.right-panel-pyramid-auto[

```
  # A tibble: 1,704 x 6
     country     continent  year lifeExp      pop gdpPercap
     <fct>       <fct>     <int>   <dbl>    <int>     <dbl>
   1 Afghanistan Asia       1952    28.8  8425333      779.
   2 Afghanistan Asia       1957    30.3  9240934      821.
   3 Afghanistan Asia       1962    32.0 10267083      853.
   4 Afghanistan Asia       1967    34.0 11537966      836.
   5 Afghanistan Asia       1972    36.1 13079460      740.
   6 Afghanistan Asia       1977    38.4 14880372      786.
   7 Afghanistan Asia       1982    39.9 12881816      978.
   8 Afghanistan Asia       1987    40.8 13867957      852.
   9 Afghanistan Asia       1992    41.7 16317921      649.
  10 Afghanistan Asia       1997    41.8 22227415      635.
  # … with 1,694 more rows
```
…
.left-panel-pyramid-auto[

```r
gapminder %>%  
* filter(year == 2002 | year == 2007)
```
]
 
.right-panel-pyramid-auto[

```
  # A tibble: 284 x 6
     country     continent  year lifeExp      pop gdpPercap
     <fct>       <fct>     <int>   <dbl>    <int>     <dbl>
   1 Afghanistan Asia       2002    42.1 25268405      727.
   2 Afghanistan Asia       2007    43.8 31889923      975.
   3 Albania     Europe     2002    75.7  3508512     4604.
   4 Albania     Europe     2007    76.4  3600523     5937.
   5 Algeria     Africa     2002    71.0 31287142     5288.
   6 Algeria     Africa     2007    72.3 33333216     6223.
   7 Angola      Africa     2002    41.0 10866106     2773.
   8 Angola      Africa     2007    42.7 12420476     4797.
   9 Argentina   Americas   2002    74.3 38331121     8798.
  10 Argentina   Americas   2007    75.3 40301927    12779.
  # … with 274 more rows
```
…
.left-panel-pyramid-auto[

```r
gapminder %>%  
  filter(year == 2002 | year == 2007) %>%  
* filter(continent == "Americas")
```
]
 
.right-panel-pyramid-auto[

```
  # A tibble: 50 x 6
     country   continent  year lifeExp       pop gdpPercap
     <fct>     <fct>     <int>   <dbl>     <int>     <dbl>
   1 Argentina Americas   2002    74.3  38331121     8798.
   2 Argentina Americas   2007    75.3  40301927    12779.
   3 Bolivia   Americas   2002    63.9   8445134     3413.
   4 Bolivia   Americas   2007    65.6   9119152     3822.
   5 Brazil    Americas   2002    71.0 179914212     8131.
   6 Brazil    Americas   2007    72.4 190010647     9066.
   7 Canada    Americas   2002    79.8  31902268    33329.
   8 Canada    Americas   2007    80.7  33390141    36319.
   9 Chile     Americas   2002    77.9  15497046    10779.
  10 Chile     Americas   2007    78.6  16284741    13172.
  # … with 40 more rows
```
…
.left-panel-pyramid-auto[

```r
gapminder %>%  
  filter(year == 2002 | year == 2007) %>%  
  filter(continent == "Americas") %>%  
* mutate(year = factor(year))   # as categorical
```
]
 
.right-panel-pyramid-auto[

```
  # A tibble: 50 x 6
     country   continent year  lifeExp       pop gdpPercap
     <fct>     <fct>     <fct>   <dbl>     <int>     <dbl>
   1 Argentina Americas  2002     74.3  38331121     8798.
   2 Argentina Americas  2007     75.3  40301927    12779.
   3 Bolivia   Americas  2002     63.9   8445134     3413.
   4 Bolivia   Americas  2007     65.6   9119152     3822.
   5 Brazil    Americas  2002     71.0 179914212     8131.
   6 Brazil    Americas  2007     72.4 190010647     9066.
   7 Canada    Americas  2002     79.8  31902268    33329.
   8 Canada    Americas  2007     80.7  33390141    36319.
   9 Chile     Americas  2002     77.9  15497046    10779.
  10 Chile     Americas  2007     78.6  16284741    13172.
  # … with 40 more rows
```
…
```r
gapminder %>%  
  filter(year == 2002 | year == 2007) %>%  
  filter(continent == "Americas") %>%  
  mutate(year = factor(year)) %>%  # as categorical
# reorder by reverse size of mean life exp
* mutate(country = reorder(country, -lifeExp, mean))
```
]
 
.right-panel-pyramid-auto[

```
  # A tibble: 50 x 6
     country   continent year  lifeExp       pop gdpPercap
     <fct>     <fct>     <fct>   <dbl>     <int>     <dbl>
   1 Argentina Americas  2002     74.3  38331121     8798.
   2 Argentina Americas  2007     75.3  40301927    12779.
   3 Bolivia   Americas  2002     63.9   8445134     3413.
   4 Bolivia   Americas  2007     65.6   9119152     3822.
   5 Brazil    Americas  2002     71.0 179914212     8131.
   6 Brazil    Americas  2007     72.4 190010647     9066.
   7 Canada    Americas  2002     79.8  31902268    33329.
   8 Canada    Americas  2007     80.7  33390141    36319.
   9 Chile     Americas  2002     77.9  15497046    10779.
  10 Chile     Americas  2007     78.6  16284741    13172.
  # … with 40 more rows
```
…
.right-panel-pyramid-auto[

```
  # A tibble: 50 x 7
     country   continent year  lifeExp       pop gdpPercap life_exp_mod
     <fct>     <fct>     <fct>   <dbl>     <int>     <dbl>        <dbl>
   1 Argentina Americas  2002     74.3  38331121     8798.        -74.3
   2 Argentina Americas  2007     75.3  40301927    12779.         75.3
   3 Bolivia   Americas  2002     63.9   8445134     3413.        -63.9
   4 Bolivia   Americas  2007     65.6   9119152     3822.         65.6
   5 Brazil    Americas  2002     71.0 179914212     8131.        -71.0
   6 Brazil    Americas  2007     72.4 190010647     9066.         72.4
   7 Canada    Americas  2002     79.8  31902268    33329.        -79.8
   8 Canada    Americas  2007     80.7  33390141    36319.         80.7
   9 Chile     Americas  2002     77.9  15497046    10779.        -77.9
  10 Chile     Americas  2007     78.6  16284741    13172.         78.6
  # … with 40 more rows
```
…
.left-panel-matrix-auto[

```r
set.seed(12345)  
library(ggforce)  
*diamonds
```
]
 
.right-panel-matrix-auto[

```
  # A tibble: 53,940 x 10
     carat cut       color clarity depth table price     x     y     z
     <dbl> <ord>     <ord> <ord>   <dbl> <dbl> <int> <dbl> <dbl> <dbl>
   1 0.23  Ideal     E     SI2      61.5    55   326  3.95  3.98  2.43
   2 0.21  Premium   E     SI1      59.8    61   326  3.89  3.84  2.31
   3 0.23  Good      E     VS1      56.9    65   327  4.05  4.07  2.31
   4 0.290 Premium   I     VS2      62.4    58   334  4.2   4.23  2.63
   5 0.31  Good      J     SI2      63.3    58   335  4.34  4.35  2.75
   6 0.24  Very Good J     VVS2     62.8    57   336  3.94  3.96  2.48
   7 0.24  Very Good I     VVS1     62.3    57   336  3.95  3.98  2.47
   8 0.26  Very Good H     SI1      61.9    55   337  4.07  4.11  2.53
   9 0.22  Fair      E     VS2      65.1    61   337  3.87  3.78  2.49
  10 0.23  Very Good H     VS1      59.4    61   338  4     4.05  2.39
  # … with 53,930 more rows
```
…
.left-panel-matrix-auto[

```r
set.seed(12345)  
library(ggforce)  
diamonds %>%  
* select(carat, table, price, clarity)
```
]
 
.right-panel-matrix-auto[

```
  # A tibble: 53,940 x 4
     carat table price clarity
     <dbl> <dbl> <int> <ord>  
   1 0.23     55   326 SI2    
   2 0.21     61   326 SI1    
   3 0.23     65   327 VS1    
   4 0.290    58   334 VS2    
   5 0.31     58   335 SI2    
   6 0.24     57   336 VVS2   
   7 0.24     57   336 VVS1   
   8 0.26     55   337 SI1    
   9 0.22     61   337 VS2    
  10 0.23     61   338 VS1    
  # … with 53,930 more rows
```
…
.left-panel-matrix-auto[

```r
set.seed(12345)  
library(ggforce)  
diamonds %>%  
  select(carat, table, price, clarity) %>%  
* sample_frac(.1)
```
]
 
.right-panel-matrix-auto[

```
  # A tibble: 5,394 x 4
     carat table price clarity
     <dbl> <dbl> <int> <ord>  
   1  1.01    56  4886 SI1    
   2  0.41    61   827 VS2    
   3  1.26    57  4704 SI2    
   4  0.3     57   554 SI1    
   5  0.34    56   726 VS2    
   6  2       56 15851 SI1    
   7  1.16    57  9526 VVS1   
   8  0.54    56  1760 VS2    
   9  1.51    60 14375 VS1    
  10  0.31    58   907 VVS2   
  # … with 5,384 more rows
```
…
