{ggplot2} and extensions geoms
…
class: split-40
count: false

.left-code-discrete2x_build-auto[

```r
*gapminder
```
]
 
.right-output-discrete2x_build-auto[

```
  # A tibble: 1,704 x 6
     country     continent  year lifeExp      pop gdpPercap
     <fct>       <fct>     <int>   <dbl>    <int>     <dbl>
   1 Afghanistan Asia       1952    28.8  8425333      779.
   2 Afghanistan Asia       1957    30.3  9240934      821.
   3 Afghanistan Asia       1962    32.0 10267083      853.
   4 Afghanistan Asia       1967    34.0 11537966      836.
   5 Afghanistan Asia       1972    36.1 13079460      740.
   6 Afghanistan Asia       1977    38.4 14880372      786.
   7 Afghanistan Asia       1982    39.9 12881816      978.
   8 Afghanistan Asia       1987    40.8 13867957      852.
   9 Afghanistan Asia       1992    41.7 16317921      649.
  10 Afghanistan Asia       1997    41.8 22227415      635.
  # … with 1,694 more rows
```
…
.left-code-discrete2x_build-auto[

```r
gapminder %>%  
* filter(year == 2002)
```
]
 
.right-output-discrete2x_build-auto[

```
  # A tibble: 142 x 6
     country     continent  year lifeExp       pop gdpPercap
     <fct>       <fct>     <int>   <dbl>     <int>     <dbl>
   1 Afghanistan Asia       2002    42.1  25268405      727.
   2 Albania     Europe     2002    75.7   3508512     4604.
   3 Algeria     Africa     2002    71.0  31287142     5288.
   4 Angola      Africa     2002    41.0  10866106     2773.
   5 Argentina   Americas   2002    74.3  38331121     8798.
   6 Australia   Oceania    2002    80.4  19546792    30688.
   7 Austria     Europe     2002    79.0   8148312    32418.
   8 Bahrain     Asia       2002    74.8    656397    23404.
   9 Bangladesh  Asia       2002    62.0 135656790     1136.
  10 Belgium     Europe     2002    78.3  10311970    30486.
  # … with 132 more rows
```
…
.left-code-discrete2x_build-auto[

```r
gapminder %>%  
  filter(year == 2002) %>%  
* mutate(seventy_plus = lifeExp >= 75)
```
]
 
.right-output-discrete2x_build-auto[

```
  # A tibble: 142 x 7
     country     continent  year lifeExp       pop gdpPercap seventy_plus
     <fct>       <fct>     <int>   <dbl>     <int>     <dbl> <lgl>       
   1 Afghanistan Asia       2002    42.1  25268405      727. FALSE       
   2 Albania     Europe     2002    75.7   3508512     4604. TRUE        
   3 Algeria     Africa     2002    71.0  31287142     5288. FALSE       
   4 Angola      Africa     2002    41.0  10866106     2773. FALSE       
   5 Argentina   Americas   2002    74.3  38331121     8798. FALSE       
   6 Australia   Oceania    2002    80.4  19546792    30688. TRUE        
   7 Austria     Europe     2002    79.0   8148312    32418. TRUE        
   8 Bahrain     Asia       2002    74.8    656397    23404. FALSE       
   9 Bangladesh  Asia       2002    62.0 135656790     1136. FALSE       
  10 Belgium     Europe     2002    78.3  10311970    30486. TRUE        
  # … with 132 more rows
```
…
.right-output-discrete2x_build-auto[

```
  # A tibble: 142 x 8
     country   continent  year lifeExp     pop gdpPercap seventy_plus age_category
     <fct>     <fct>     <int>   <dbl>   <int>     <dbl> <lgl>        <chr>       
   1 Afghanis… Asia       2002    42.1  2.53e7      727. FALSE        < Seventy   
   2 Albania   Europe     2002    75.7  3.51e6     4604. TRUE         Seventy +   
   3 Algeria   Africa     2002    71.0  3.13e7     5288. FALSE        < Seventy   
   4 Angola    Africa     2002    41.0  1.09e7     2773. FALSE        < Seventy   
   5 Argentina Americas   2002    74.3  3.83e7     8798. FALSE        < Seventy   
   6 Australia Oceania    2002    80.4  1.95e7    30688. TRUE         Seventy +   
   7 Austria   Europe     2002    79.0  8.15e6    32418. TRUE         Seventy +   
   8 Bahrain   Asia       2002    74.8  6.56e5    23404. FALSE        < Seventy   
   9 Banglade… Asia       2002    62.0  1.36e8     1136. FALSE        < Seventy   
  10 Belgium   Europe     2002    78.3  1.03e7    30486. TRUE         Seventy +   
  # … with 132 more rows
```
…
class: split-40
count: false

.left-code-mosaic-auto[

```r
*gapminder
```
]
 
.right-output-mosaic-auto[

```
  # A tibble: 1,704 x 6
     country     continent  year lifeExp      pop gdpPercap
     <fct>       <fct>     <int>   <dbl>    <int>     <dbl>
   1 Afghanistan Asia       1952    28.8  8425333      779.
   2 Afghanistan Asia       1957    30.3  9240934      821.
   3 Afghanistan Asia       1962    32.0 10267083      853.
   4 Afghanistan Asia       1967    34.0 11537966      836.
   5 Afghanistan Asia       1972    36.1 13079460      740.
   6 Afghanistan Asia       1977    38.4 14880372      786.
   7 Afghanistan Asia       1982    39.9 12881816      978.
   8 Afghanistan Asia       1987    40.8 13867957      852.
   9 Afghanistan Asia       1992    41.7 16317921      649.
  10 Afghanistan Asia       1997    41.8 22227415      635.
  # … with 1,694 more rows
```
…
.left-code-mosaic-auto[

```r
gapminder %>%  
* filter(year == 2002)
```
]
 
.right-output-mosaic-auto[

```
  # A tibble: 142 x 6
     country     continent  year lifeExp       pop gdpPercap
     <fct>       <fct>     <int>   <dbl>     <int>     <dbl>
   1 Afghanistan Asia       2002    42.1  25268405      727.
   2 Albania     Europe     2002    75.7   3508512     4604.
   3 Algeria     Africa     2002    71.0  31287142     5288.
   4 Angola      Africa     2002    41.0  10866106     2773.
   5 Argentina   Americas   2002    74.3  38331121     8798.
   6 Australia   Oceania    2002    80.4  19546792    30688.
   7 Austria     Europe     2002    79.0   8148312    32418.
   8 Bahrain     Asia       2002    74.8    656397    23404.
   9 Bangladesh  Asia       2002    62.0 135656790     1136.
  10 Belgium     Europe     2002    78.3  10311970    30486.
  # … with 132 more rows
```
…
.left-code-mosaic-auto[

```r
gapminder %>%  
  filter(year == 2002) %>%  
* mutate(higher_income = gdpPercap > 20000)
```
]
 
.right-output-mosaic-auto[

```
  # A tibble: 142 x 7
     country     continent  year lifeExp       pop gdpPercap higher_income
     <fct>       <fct>     <int>   <dbl>     <int>     <dbl> <lgl>        
   1 Afghanistan Asia       2002    42.1  25268405      727. FALSE        
   2 Albania     Europe     2002    75.7   3508512     4604. FALSE        
   3 Algeria     Africa     2002    71.0  31287142     5288. FALSE        
   4 Angola      Africa     2002    41.0  10866106     2773. FALSE        
   5 Argentina   Americas   2002    74.3  38331121     8798. FALSE        
   6 Australia   Oceania    2002    80.4  19546792    30688. TRUE         
   7 Austria     Europe     2002    79.0   8148312    32418. TRUE         
   8 Bahrain     Asia       2002    74.8    656397    23404. TRUE         
   9 Bangladesh  Asia       2002    62.0 135656790     1136. FALSE        
  10 Belgium     Europe     2002    78.3  10311970    30486. TRUE         
  # … with 132 more rows
```
…
.left-code-mosaic-auto[

```r
gapminder %>%  
  filter(year == 2002) %>%  
  mutate(higher_income = gdpPercap > 20000) %>%  
* group_by(continent, higher_income)
```
]
 
.right-output-mosaic-auto[

```
  # A tibble: 142 x 7
  # Groups:   continent, higher_income [8]
     country     continent  year lifeExp       pop gdpPercap higher_income
     <fct>       <fct>     <int>   <dbl>     <int>     <dbl> <lgl>        
   1 Afghanistan Asia       2002    42.1  25268405      727. FALSE        
   2 Albania     Europe     2002    75.7   3508512     4604. FALSE        
   3 Algeria     Africa     2002    71.0  31287142     5288. FALSE        
   4 Angola      Africa     2002    41.0  10866106     2773. FALSE        
   5 Argentina   Americas   2002    74.3  38331121     8798. FALSE        
   6 Australia   Oceania    2002    80.4  19546792    30688. TRUE         
   7 Austria     Europe     2002    79.0   8148312    32418. TRUE         
   8 Bahrain     Asia       2002    74.8    656397    23404. TRUE         
   9 Bangladesh  Asia       2002    62.0 135656790     1136. FALSE        
  10 Belgium     Europe     2002    78.3  10311970    30486. TRUE         
  # … with 132 more rows
```
…
