Mapping Data in R with ggplot2 and geom_sf()
…
.left-code-wetherspoon-auto[

```r
library(tidyverse)  
library(rnaturalearth)  
library(readxl)  
*read_excel("wetherspoon.xlsx")
```
]
 
.right-output-wetherspoon-auto[

```
# A tibble: 213 x 19
   Name  Location Latitude Longitude `Empire State B… `Chicken Tikka`
   <chr> <chr>       <dbl>     <dbl>            <dbl>           <dbl>
 1 The … Leicest…     51.5   -0.129             11.2             8.39
 2 The … Whiteha…     51.5   -0.127             11.0             8.39
 3 Pend… Holborn…     51.5   -0.115             11.0             8.39
 4 The … City of…     51.5   -0.0847            11.0             8.39
 5 The … Manches…     53.5   -2.35              13.6             9.15
 6 The … Windsor      51.5   -0.609             10.6             8.99
 7 The … Beacons…     51.6   -0.627              9.75            8.99
 8 Good… Tower H…     51.5   -0.0728            11.0             8.39
 9 Cast… Manches…     53.5   -2.36              11.5             8.4 
10 The … Camden,…     51.5   -0.145             11.2             8.39
# … with 203 more rows, and 13 more variables: `Gammon afternoon deal` <chr>,
#   `Chocolate Brownie` <dbl>, `Doom Bar` <dbl>, `Birra Moretti` <dbl>, `Porn
#   Star at 2 x £12` <chr>, `Porn Star (glass)` <chr>, MEAL <dbl>, Notes <chr>,
#   `Moretti as a % of a tikka` <dbl>, `Moretti as % of burger` <dbl>, `PRICE
#   BUCKETS` <chr>, `Food cost £` <dbl>, `Drink cost £` <dbl>
```
…
```r
library(tidyverse)  
library(rnaturalearth)  
library(readxl)  
read_excel("wetherspoon.xlsx") ->  
wetherspoon_raw  
#
*wetherspoon_raw
```
]
 
.right-output-wetherspoon-auto[

```
# A tibble: 213 x 19
   Name  Location Latitude Longitude `Empire State B… `Chicken Tikka`
   <chr> <chr>       <dbl>     <dbl>            <dbl>           <dbl>
 1 The … Leicest…     51.5   -0.129             11.2             8.39
 2 The … Whiteha…     51.5   -0.127             11.0             8.39
 3 Pend… Holborn…     51.5   -0.115             11.0             8.39
 4 The … City of…     51.5   -0.0847            11.0             8.39
 5 The … Manches…     53.5   -2.35              13.6             9.15
 6 The … Windsor      51.5   -0.609             10.6             8.99
 7 The … Beacons…     51.6   -0.627              9.75            8.99
 8 Good… Tower H…     51.5   -0.0728            11.0             8.39
 9 Cast… Manches…     53.5   -2.36              11.5             8.4 
10 The … Camden,…     51.5   -0.145             11.2             8.39
# … with 203 more rows, and 13 more variables: `Gammon afternoon deal` <chr>,
#   `Chocolate Brownie` <dbl>, `Doom Bar` <dbl>, `Birra Moretti` <dbl>, `Porn
#   Star at 2 x £12` <chr>, `Porn Star (glass)` <chr>, MEAL <dbl>, Notes <chr>,
#   `Moretti as a % of a tikka` <dbl>, `Moretti as % of burger` <dbl>, `PRICE
#   BUCKETS` <chr>, `Food cost £` <dbl>, `Drink cost £` <dbl>
```
…
.right-output-wetherspoon-auto[

```
# A tibble: 213 x 19
   name  location latitude longitude empire_state_bu… chicken_tikka
   <chr> <chr>       <dbl>     <dbl>            <dbl>         <dbl>
 1 The … Leicest…     51.5   -0.129             11.2           8.39
 2 The … Whiteha…     51.5   -0.127             11.0           8.39
 3 Pend… Holborn…     51.5   -0.115             11.0           8.39
 4 The … City of…     51.5   -0.0847            11.0           8.39
 5 The … Manches…     53.5   -2.35              13.6           9.15
 6 The … Windsor      51.5   -0.609             10.6           8.99
 7 The … Beacons…     51.6   -0.627              9.75          8.99
 8 Good… Tower H…     51.5   -0.0728            11.0           8.39
 9 Cast… Manches…     53.5   -2.36              11.5           8.4 
10 The … Camden,…     51.5   -0.145             11.2           8.39
# … with 203 more rows, and 13 more variables: gammon_afternoon_deal <chr>,
#   chocolate_brownie <dbl>, doom_bar <dbl>, birra_moretti <dbl>,
#   porn_star_at_2_x_12 <chr>, porn_star_glass <chr>, meal <dbl>, notes <chr>,
#   moretti_as_a_percent_of_a_tikka <dbl>, moretti_as_percent_of_burger <dbl>,
#   price_buckets <chr>, food_cost <dbl>, drink_cost <dbl>
```
…
.right-output-wetherspoon-auto[

```
# A tibble: 213 x 5
   name                location            latitude longitude empire_state_burg…
   <chr>               <chr>                  <dbl>     <dbl>              <dbl>
 1 The Moon Under Wat… Leicester Square, …     51.5   -0.129               11.2 
 2 The Lord Moon of t… Whitehall, London       51.5   -0.127               11.0 
 3 Pendrel's Oak       Holborn, London         51.5   -0.115               11.0 
 4 The Cross Keyes     City of London, Lo…     51.5   -0.0847              11.0 
 5 The Mardi Gras      Manchester              53.5   -2.35                13.6 
 6 The King and Castle Windsor                 51.5   -0.609               10.6 
 7 The Hope & Champion Beaconsfield Servi…     51.6   -0.627                9.75
 8 Goodman's Field     Tower Hamlets, Lon…     51.5   -0.0728              11.0 
 9 Castle In the Air   Manchester              53.5   -2.36                11.5 
10 The Ice Wharf       Camden, London          51.5   -0.145               11.2 
# … with 203 more rows
```
…
The second example will also draw its shapefiles from the rnaturalearth package. We will also use a dataset containing the defense expenditure of NATO member states. 

We will make a colored map that allows for easy visual comparison of spending levels. This type is called a choropleth map.

---

```r
library(readxl)
nato_expenditure <- read_excel("nato_expenditure.xlsx")

nato_expenditure
```

```
# A tibble: 29 x 2
   name           spendingPercap
   <chr>                   <dbl>
 1 Albania                  1.26
 2 Belgium                  0.93
 3 Bulgaria                 1.61
 4 Canada                   1.27
 5 Croatia                  1.75
 6 Czech Republic           1.19
 7 Denmark                  1.35
 8 Estonia                  2.13
 9 France                   1.84
10 Germany                  1.36
# … with 19 more rows
```
…
