single series
…
class: split-40
count: false

.left-code-polar_bar-auto[

```r
*gapminder
```
]
 
.right-output-polar_bar-auto[

```
  # A tibble: 1,704 x 6
     country     continent  year lifeExp      pop gdpPercap
     <fct>       <fct>     <int>   <dbl>    <int>     <dbl>
   1 Afghanistan Asia       1952    28.8  8425333      779.
   2 Afghanistan Asia       1957    30.3  9240934      821.
   3 Afghanistan Asia       1962    32.0 10267083      853.
   4 Afghanistan Asia       1967    34.0 11537966      836.
   5 Afghanistan Asia       1972    36.1 13079460      740.
   6 Afghanistan Asia       1977    38.4 14880372      786.
   7 Afghanistan Asia       1982    39.9 12881816      978.
   8 Afghanistan Asia       1987    40.8 13867957      852.
   9 Afghanistan Asia       1992    41.7 16317921      649.
  10 Afghanistan Asia       1997    41.8 22227415      635.
  # … with 1,694 more rows
```
…
.left-code-polar_bar-auto[

```r
gapminder %>%  
* filter(continent == "Oceania")
```
]
 
.right-output-polar_bar-auto[

```
  # A tibble: 24 x 6
     country   continent  year lifeExp      pop gdpPercap
     <fct>     <fct>     <int>   <dbl>    <int>     <dbl>
   1 Australia Oceania    1952    69.1  8691212    10040.
   2 Australia Oceania    1957    70.3  9712569    10950.
   3 Australia Oceania    1962    70.9 10794968    12217.
   4 Australia Oceania    1967    71.1 11872264    14526.
   5 Australia Oceania    1972    71.9 13177000    16789.
   6 Australia Oceania    1977    73.5 14074100    18334.
   7 Australia Oceania    1982    74.7 15184200    19477.
   8 Australia Oceania    1987    76.3 16257249    21889.
   9 Australia Oceania    1992    77.6 17481977    23425.
  10 Australia Oceania    1997    78.8 18565243    26998.
  # … with 14 more rows
```
…
.left-code-polar_bar-auto[

```r
gapminder %>%  
  filter(continent == "Oceania") %>%  
* mutate(pop_millions = pop/1000000)
```
]
 
.right-output-polar_bar-auto[

```
  # A tibble: 24 x 7
     country   continent  year lifeExp      pop gdpPercap pop_millions
     <fct>     <fct>     <int>   <dbl>    <int>     <dbl>        <dbl>
   1 Australia Oceania    1952    69.1  8691212    10040.         8.69
   2 Australia Oceania    1957    70.3  9712569    10950.         9.71
   3 Australia Oceania    1962    70.9 10794968    12217.        10.8 
   4 Australia Oceania    1967    71.1 11872264    14526.        11.9 
   5 Australia Oceania    1972    71.9 13177000    16789.        13.2 
   6 Australia Oceania    1977    73.5 14074100    18334.        14.1 
   7 Australia Oceania    1982    74.7 15184200    19477.        15.2 
   8 Australia Oceania    1987    76.3 16257249    21889.        16.3 
   9 Australia Oceania    1992    77.6 17481977    23425.        17.5 
  10 Australia Oceania    1997    78.8 18565243    26998.        18.6 
  # … with 14 more rows
```
…
.left-code-polar_bar-auto[

```r
gapminder %>%  
  filter(continent == "Oceania") %>%  
  mutate(pop_millions = pop/1000000) %>%  
* arrange(-pop)
```
]
 
.right-output-polar_bar-auto[

```
  # A tibble: 24 x 7
     country   continent  year lifeExp      pop gdpPercap pop_millions
     <fct>     <fct>     <int>   <dbl>    <int>     <dbl>        <dbl>
   1 Australia Oceania    2007    81.2 20434176    34435.         20.4
   2 Australia Oceania    2002    80.4 19546792    30688.         19.5
   3 Australia Oceania    1997    78.8 18565243    26998.         18.6
   4 Australia Oceania    1992    77.6 17481977    23425.         17.5
   5 Australia Oceania    1987    76.3 16257249    21889.         16.3
   6 Australia Oceania    1982    74.7 15184200    19477.         15.2
   7 Australia Oceania    1977    73.5 14074100    18334.         14.1
   8 Australia Oceania    1972    71.9 13177000    16789.         13.2
   9 Australia Oceania    1967    71.1 11872264    14526.         11.9
  10 Australia Oceania    1962    70.9 10794968    12217.         10.8
  # … with 14 more rows
```
…
class: split-40
count: false

.left-code-pie_donut-auto[

```r
*gapminder
```
]
 
.right-output-pie_donut-auto[

```
  # A tibble: 1,704 x 6
     country     continent  year lifeExp      pop gdpPercap
     <fct>       <fct>     <int>   <dbl>    <int>     <dbl>
   1 Afghanistan Asia       1952    28.8  8425333      779.
   2 Afghanistan Asia       1957    30.3  9240934      821.
   3 Afghanistan Asia       1962    32.0 10267083      853.
   4 Afghanistan Asia       1967    34.0 11537966      836.
   5 Afghanistan Asia       1972    36.1 13079460      740.
   6 Afghanistan Asia       1977    38.4 14880372      786.
   7 Afghanistan Asia       1982    39.9 12881816      978.
   8 Afghanistan Asia       1987    40.8 13867957      852.
   9 Afghanistan Asia       1992    41.7 16317921      649.
  10 Afghanistan Asia       1997    41.8 22227415      635.
  # … with 1,694 more rows
```
…
.left-code-pie_donut-auto[

```r
gapminder %>%  
* filter(year == 2002)
```
]
 
.right-output-pie_donut-auto[

```
  # A tibble: 142 x 6
     country     continent  year lifeExp       pop gdpPercap
     <fct>       <fct>     <int>   <dbl>     <int>     <dbl>
   1 Afghanistan Asia       2002    42.1  25268405      727.
   2 Albania     Europe     2002    75.7   3508512     4604.
   3 Algeria     Africa     2002    71.0  31287142     5288.
   4 Angola      Africa     2002    41.0  10866106     2773.
   5 Argentina   Americas   2002    74.3  38331121     8798.
   6 Australia   Oceania    2002    80.4  19546792    30688.
   7 Austria     Europe     2002    79.0   8148312    32418.
   8 Bahrain     Asia       2002    74.8    656397    23404.
   9 Bangladesh  Asia       2002    62.0 135656790     1136.
  10 Belgium     Europe     2002    78.3  10311970    30486.
  # … with 132 more rows
```
…
class: split-40
count: false

.left-code-circle_pack-auto[

```r
*gapminder
```
]
 
.right-output-circle_pack-auto[

```
  # A tibble: 1,704 x 6
     country     continent  year lifeExp      pop gdpPercap
     <fct>       <fct>     <int>   <dbl>    <int>     <dbl>
   1 Afghanistan Asia       1952    28.8  8425333      779.
   2 Afghanistan Asia       1957    30.3  9240934      821.
   3 Afghanistan Asia       1962    32.0 10267083      853.
   4 Afghanistan Asia       1967    34.0 11537966      836.
   5 Afghanistan Asia       1972    36.1 13079460      740.
   6 Afghanistan Asia       1977    38.4 14880372      786.
   7 Afghanistan Asia       1982    39.9 12881816      978.
   8 Afghanistan Asia       1987    40.8 13867957      852.
   9 Afghanistan Asia       1992    41.7 16317921      649.
  10 Afghanistan Asia       1997    41.8 22227415      635.
  # … with 1,694 more rows
```
…
.left-code-circle_pack-auto[

```r
gapminder %>%  
* filter(continent == "Americas")
```
]
 
.right-output-circle_pack-auto[

```
  # A tibble: 300 x 6
     country   continent  year lifeExp      pop gdpPercap
     <fct>     <fct>     <int>   <dbl>    <int>     <dbl>
   1 Argentina Americas   1952    62.5 17876956     5911.
   2 Argentina Americas   1957    64.4 19610538     6857.
   3 Argentina Americas   1962    65.1 21283783     7133.
   4 Argentina Americas   1967    65.6 22934225     8053.
   5 Argentina Americas   1972    67.1 24779799     9443.
   6 Argentina Americas   1977    68.5 26983828    10079.
   7 Argentina Americas   1982    69.9 29341374     8998.
   8 Argentina Americas   1987    70.8 31620918     9140.
   9 Argentina Americas   1992    71.9 33958947     9308.
  10 Argentina Americas   1997    73.3 36203463    10967.
  # … with 290 more rows
```
…
.left-code-circle_pack-auto[

```r
gapminder %>%  
  filter(continent == "Americas") %>%  
* filter(year == 2002)
```
]
 
.right-output-circle_pack-auto[

```
  # A tibble: 25 x 6
     country            continent  year lifeExp       pop gdpPercap
     <fct>              <fct>     <int>   <dbl>     <int>     <dbl>
   1 Argentina          Americas   2002    74.3  38331121     8798.
   2 Bolivia            Americas   2002    63.9   8445134     3413.
   3 Brazil             Americas   2002    71.0 179914212     8131.
   4 Canada             Americas   2002    79.8  31902268    33329.
   5 Chile              Americas   2002    77.9  15497046    10779.
   6 Colombia           Americas   2002    71.7  41008227     5755.
   7 Costa Rica         Americas   2002    78.1   3834934     7723.
   8 Cuba               Americas   2002    77.2  11226999     6341.
   9 Dominican Republic Americas   2002    70.8   8650322     4564.
  10 Ecuador            Americas   2002    74.2  12921234     5773.
  # … with 15 more rows
```
…
.left-code-circle_pack-auto[

```r
gapminder %>%  
  filter(continent == "Americas") %>%  
  filter(year == 2002) %>%  
* select(country, pop)
```
]
 
.right-output-circle_pack-auto[

```
  # A tibble: 25 x 2
     country                  pop
     <fct>                  <int>
   1 Argentina           38331121
   2 Bolivia              8445134
   3 Brazil             179914212
   4 Canada              31902268
   5 Chile               15497046
   6 Colombia            41008227
   7 Costa Rica           3834934
   8 Cuba                11226999
   9 Dominican Republic   8650322
  10 Ecuador             12921234
  # … with 15 more rows
```
…
class: split-40
count: false

.left-code-treemapify-auto[

```r
*gapminder
```
]
 
.right-output-treemapify-auto[

```
  # A tibble: 1,704 x 6
     country     continent  year lifeExp      pop gdpPercap
     <fct>       <fct>     <int>   <dbl>    <int>     <dbl>
   1 Afghanistan Asia       1952    28.8  8425333      779.
   2 Afghanistan Asia       1957    30.3  9240934      821.
   3 Afghanistan Asia       1962    32.0 10267083      853.
   4 Afghanistan Asia       1967    34.0 11537966      836.
   5 Afghanistan Asia       1972    36.1 13079460      740.
   6 Afghanistan Asia       1977    38.4 14880372      786.
   7 Afghanistan Asia       1982    39.9 12881816      978.
   8 Afghanistan Asia       1987    40.8 13867957      852.
   9 Afghanistan Asia       1992    41.7 16317921      649.
  10 Afghanistan Asia       1997    41.8 22227415      635.
  # … with 1,694 more rows
```
…
.left-code-treemapify-auto[

```r
gapminder %>%  
* filter(continent == "Americas")
```
]
 
.right-output-treemapify-auto[

```
  # A tibble: 300 x 6
     country   continent  year lifeExp      pop gdpPercap
     <fct>     <fct>     <int>   <dbl>    <int>     <dbl>
   1 Argentina Americas   1952    62.5 17876956     5911.
   2 Argentina Americas   1957    64.4 19610538     6857.
   3 Argentina Americas   1962    65.1 21283783     7133.
   4 Argentina Americas   1967    65.6 22934225     8053.
   5 Argentina Americas   1972    67.1 24779799     9443.
   6 Argentina Americas   1977    68.5 26983828    10079.
   7 Argentina Americas   1982    69.9 29341374     8998.
   8 Argentina Americas   1987    70.8 31620918     9140.
   9 Argentina Americas   1992    71.9 33958947     9308.
  10 Argentina Americas   1997    73.3 36203463    10967.
  # … with 290 more rows
```
…
.left-code-treemapify-auto[

```r
gapminder %>%  
  filter(continent == "Americas") %>%  
* filter(year == 2002)
```
]
 
.right-output-treemapify-auto[

```
  # A tibble: 25 x 6
     country            continent  year lifeExp       pop gdpPercap
     <fct>              <fct>     <int>   <dbl>     <int>     <dbl>
   1 Argentina          Americas   2002    74.3  38331121     8798.
   2 Bolivia            Americas   2002    63.9   8445134     3413.
   3 Brazil             Americas   2002    71.0 179914212     8131.
   4 Canada             Americas   2002    79.8  31902268    33329.
   5 Chile              Americas   2002    77.9  15497046    10779.
   6 Colombia           Americas   2002    71.7  41008227     5755.
   7 Costa Rica         Americas   2002    78.1   3834934     7723.
   8 Cuba               Americas   2002    77.2  11226999     6341.
   9 Dominican Republic Americas   2002    70.8   8650322     4564.
  10 Ecuador            Americas   2002    74.2  12921234     5773.
  # … with 15 more rows
```
…
.left-code-treemapify-auto[

```r
gapminder %>%  
  filter(continent == "Americas") %>%  
  filter(year == 2002) %>%  
* mutate(pop_millions = pop/1000000)
```
]
 
.right-output-treemapify-auto[

```
  # A tibble: 25 x 7
     country            continent  year lifeExp       pop gdpPercap pop_millions
     <fct>              <fct>     <int>   <dbl>     <int>     <dbl>        <dbl>
   1 Argentina          Americas   2002    74.3  38331121     8798.        38.3 
   2 Bolivia            Americas   2002    63.9   8445134     3413.         8.45
   3 Brazil             Americas   2002    71.0 179914212     8131.       180.  
   4 Canada             Americas   2002    79.8  31902268    33329.        31.9 
   5 Chile              Americas   2002    77.9  15497046    10779.        15.5 
   6 Colombia           Americas   2002    71.7  41008227     5755.        41.0 
   7 Costa Rica         Americas   2002    78.1   3834934     7723.         3.83
   8 Cuba               Americas   2002    77.2  11226999     6341.        11.2 
   9 Dominican Republic Americas   2002    70.8   8650322     4564.         8.65
  10 Ecuador            Americas   2002    74.2  12921234     5773.        12.9 
  # … with 15 more rows
```
…
class: split-40
count: false

.left-code-waffle-auto[

```r
# special install
*gapminder
```
]
 
.right-output-waffle-auto[

```
  # A tibble: 1,704 x 6
     country     continent  year lifeExp      pop gdpPercap
     <fct>       <fct>     <int>   <dbl>    <int>     <dbl>
   1 Afghanistan Asia       1952    28.8  8425333      779.
   2 Afghanistan Asia       1957    30.3  9240934      821.
   3 Afghanistan Asia       1962    32.0 10267083      853.
   4 Afghanistan Asia       1967    34.0 11537966      836.
   5 Afghanistan Asia       1972    36.1 13079460      740.
   6 Afghanistan Asia       1977    38.4 14880372      786.
   7 Afghanistan Asia       1982    39.9 12881816      978.
   8 Afghanistan Asia       1987    40.8 13867957      852.
   9 Afghanistan Asia       1992    41.7 16317921      649.
  10 Afghanistan Asia       1997    41.8 22227415      635.
  # … with 1,694 more rows
```
…
.left-code-waffle-auto[

```r
# special install
gapminder %>%  
* filter(year == 2002)
```
]
 
.right-output-waffle-auto[

```
  # A tibble: 142 x 6
     country     continent  year lifeExp       pop gdpPercap
     <fct>       <fct>     <int>   <dbl>     <int>     <dbl>
   1 Afghanistan Asia       2002    42.1  25268405      727.
   2 Albania     Europe     2002    75.7   3508512     4604.
   3 Algeria     Africa     2002    71.0  31287142     5288.
   4 Angola      Africa     2002    41.0  10866106     2773.
   5 Argentina   Americas   2002    74.3  38331121     8798.
   6 Australia   Oceania    2002    80.4  19546792    30688.
   7 Austria     Europe     2002    79.0   8148312    32418.
   8 Bahrain     Asia       2002    74.8    656397    23404.
   9 Bangladesh  Asia       2002    62.0 135656790     1136.
  10 Belgium     Europe     2002    78.3  10311970    30486.
  # … with 132 more rows
```
…
