geoms
…
---

class: split-40
count: false

.column[.content[

```r
*gapminder_europe
```
]]
.column[.content[

```
  # A tibble: 360 x 6
     country continent  year lifeExp     pop gdpPercap
     <fct>   <fct>     <int>   <dbl>   <int>     <dbl>
   1 Albania Europe     1952    55.2 1282697     1601.
   2 Albania Europe     1957    59.3 1476505     1942.
   3 Albania Europe     1962    64.8 1728137     2313.
   4 Albania Europe     1967    66.2 1984060     2760.
   5 Albania Europe     1972    67.7 2263554     3313.
   6 Albania Europe     1977    68.9 2509048     3533.
   7 Albania Europe     1982    70.4 2780097     3631.
   8 Albania Europe     1987    72   3075321     3739.
   9 Albania Europe     1992    71.6 3326498     2497.
  10 Albania Europe     1997    73.0 3428038     3193.
  # … with 350 more rows
```
…
---

class: split-40
count: false

.column[.content[

```r
*gapminder
```
]]
.column[.content[

```
  # A tibble: 1,704 x 6
     country     continent  year lifeExp      pop gdpPercap
     <fct>       <fct>     <int>   <dbl>    <int>     <dbl>
   1 Afghanistan Asia       1952    28.8  8425333      779.
   2 Afghanistan Asia       1957    30.3  9240934      821.
   3 Afghanistan Asia       1962    32.0 10267083      853.
   4 Afghanistan Asia       1967    34.0 11537966      836.
   5 Afghanistan Asia       1972    36.1 13079460      740.
   6 Afghanistan Asia       1977    38.4 14880372      786.
   7 Afghanistan Asia       1982    39.9 12881816      978.
   8 Afghanistan Asia       1987    40.8 13867957      852.
   9 Afghanistan Asia       1992    41.7 16317921      649.
  10 Afghanistan Asia       1997    41.8 22227415      635.
  # … with 1,694 more rows
```
…
.column[.content[

```r
gapminder %>%  
* filter(continent == "Europe")
```
]]
.column[.content[

```
  # A tibble: 360 x 6
     country continent  year lifeExp     pop gdpPercap
     <fct>   <fct>     <int>   <dbl>   <int>     <dbl>
   1 Albania Europe     1952    55.2 1282697     1601.
   2 Albania Europe     1957    59.3 1476505     1942.
   3 Albania Europe     1962    64.8 1728137     2313.
   4 Albania Europe     1967    66.2 1984060     2760.
   5 Albania Europe     1972    67.7 2263554     3313.
   6 Albania Europe     1977    68.9 2509048     3533.
   7 Albania Europe     1982    70.4 2780097     3631.
   8 Albania Europe     1987    72   3075321     3739.
   9 Albania Europe     1992    71.6 3326498     2497.
  10 Albania Europe     1997    73.0 3428038     3193.
  # … with 350 more rows
```
…
---

class: split-40
count: false

.column[.content[

```r
*gapminder
```
]]
.column[.content[

```
  # A tibble: 1,704 x 6
     country     continent  year lifeExp      pop gdpPercap
     <fct>       <fct>     <int>   <dbl>    <int>     <dbl>
   1 Afghanistan Asia       1952    28.8  8425333      779.
   2 Afghanistan Asia       1957    30.3  9240934      821.
   3 Afghanistan Asia       1962    32.0 10267083      853.
   4 Afghanistan Asia       1967    34.0 11537966      836.
   5 Afghanistan Asia       1972    36.1 13079460      740.
   6 Afghanistan Asia       1977    38.4 14880372      786.
   7 Afghanistan Asia       1982    39.9 12881816      978.
   8 Afghanistan Asia       1987    40.8 13867957      852.
   9 Afghanistan Asia       1992    41.7 16317921      649.
  10 Afghanistan Asia       1997    41.8 22227415      635.
  # … with 1,694 more rows
```
…
.column[.content[

```r
gapminder %>%  
* filter(country %in% c("Austria", "Belgium",
*                       "Norway", "Netherlands",
*                       "Spain", "Italy","France"))
```
]]
.column[.content[

```
  # A tibble: 84 x 6
     country continent  year lifeExp     pop gdpPercap
     <fct>   <fct>     <int>   <dbl>   <int>     <dbl>
   1 Austria Europe     1952    66.8 6927772     6137.
   2 Austria Europe     1957    67.5 6965860     8843.
   3 Austria Europe     1962    69.5 7129864    10751.
   4 Austria Europe     1967    70.1 7376998    12835.
   5 Austria Europe     1972    70.6 7544201    16662.
   6 Austria Europe     1977    72.2 7568430    19749.
   7 Austria Europe     1982    73.2 7574613    21597.
   8 Austria Europe     1987    74.9 7578903    23688.
   9 Austria Europe     1992    76.0 7914969    27042.
  10 Austria Europe     1997    77.5 8069876    29096.
  # … with 74 more rows
```
…
.column[.content[

```r
gapminder %>%  
  filter(country %in% c("Austria", "Belgium",  
                        "Norway", "Netherlands",  
                        "Spain", "Italy","France")) %>%  
* filter(year > 1980)
```
]]
.column[.content[

```
  # A tibble: 42 x 6
     country continent  year lifeExp      pop gdpPercap
     <fct>   <fct>     <int>   <dbl>    <int>     <dbl>
   1 Austria Europe     1982    73.2  7574613    21597.
   2 Austria Europe     1987    74.9  7578903    23688.
   3 Austria Europe     1992    76.0  7914969    27042.
   4 Austria Europe     1997    77.5  8069876    29096.
   5 Austria Europe     2002    79.0  8148312    32418.
   6 Austria Europe     2007    79.8  8199783    36126.
   7 Belgium Europe     1982    73.9  9856303    20980.
   8 Belgium Europe     1987    75.4  9870200    22526.
   9 Belgium Europe     1992    76.5 10045622    25576.
  10 Belgium Europe     1997    77.5 10199787    27561.
  # … with 32 more rows
```
…
.column[.content[

```r
gapminder %>%  
  filter(country %in% c("Austria", "Belgium",  
                        "Norway", "Netherlands",  
                        "Spain", "Italy","France")) %>%  
  filter(year > 1980) %>%  
* group_by(year)
```
]]
.column[.content[

```
  # A tibble: 42 x 6
  # Groups:   year [6]
     country continent  year lifeExp      pop gdpPercap
     <fct>   <fct>     <int>   <dbl>    <int>     <dbl>
   1 Austria Europe     1982    73.2  7574613    21597.
   2 Austria Europe     1987    74.9  7578903    23688.
   3 Austria Europe     1992    76.0  7914969    27042.
   4 Austria Europe     1997    77.5  8069876    29096.
   5 Austria Europe     2002    79.0  8148312    32418.
   6 Austria Europe     2007    79.8  8199783    36126.
   7 Belgium Europe     1982    73.9  9856303    20980.
   8 Belgium Europe     1987    75.4  9870200    22526.
   9 Belgium Europe     1992    76.5 10045622    25576.
  10 Belgium Europe     1997    77.5 10199787    27561.
  # … with 32 more rows
```
…
```r
gapminder %>%  
  filter(country %in% c("Austria", "Belgium",  
                        "Norway", "Netherlands",  
                        "Spain", "Italy","France")) %>%  
  filter(year > 1980) %>%  
  group_by(year) %>%  
* arrange(gdpPercap)
```
]]
.column[.content[

```
  # A tibble: 42 x 6
  # Groups:   year [6]
     country     continent  year lifeExp      pop gdpPercap
     <fct>       <fct>     <int>   <dbl>    <int>     <dbl>
   1 Spain       Europe     1982    76.3 37983310    13926.
   2 Spain       Europe     1987    76.9 38880702    15765.
   3 Italy       Europe     1982    75.0 56535636    16537.
   4 Spain       Europe     1992    77.6 39549438    18603.
   5 Italy       Europe     1987    76.4 56729703    19207.
   6 France      Europe     1982    74.9 54433565    20294.
   7 Spain       Europe     1997    78.8 39855442    20445.
   8 Belgium     Europe     1982    73.9  9856303    20980.
   9 Netherlands Europe     1982    76.0 14310401    21399.
  10 Austria     Europe     1982    73.2  7574613    21597.
  # … with 32 more rows
```
…
```r
gapminder %>%  
  filter(country %in% c("Austria", "Belgium",  
                        "Norway", "Netherlands",  
                        "Spain", "Italy","France")) %>%  
  filter(year > 1980) %>%  
  group_by(year) %>%  
  arrange(gdpPercap) %>%  
* mutate(rank = 1:n())
```
]]
.column[.content[

```
  # A tibble: 42 x 7
  # Groups:   year [6]
     country     continent  year lifeExp      pop gdpPercap  rank
     <fct>       <fct>     <int>   <dbl>    <int>     <dbl> <int>
   1 Spain       Europe     1982    76.3 37983310    13926.     1
   2 Spain       Europe     1987    76.9 38880702    15765.     1
   3 Italy       Europe     1982    75.0 56535636    16537.     2
   4 Spain       Europe     1992    77.6 39549438    18603.     1
   5 Italy       Europe     1987    76.4 56729703    19207.     2
   6 France      Europe     1982    74.9 54433565    20294.     3
   7 Spain       Europe     1997    78.8 39855442    20445.     1
   8 Belgium     Europe     1982    73.9  9856303    20980.     4
   9 Netherlands Europe     1982    76.0 14310401    21399.     5
  10 Austria     Europe     1982    73.2  7574613    21597.     6
  # … with 32 more rows
```
…
```
  # A tibble: 42 x 7
     country     continent  year lifeExp      pop gdpPercap  rank
     <fct>       <fct>     <int>   <dbl>    <int>     <dbl> <int>
   1 Spain       Europe     1982    76.3 37983310    13926.     1
   2 Spain       Europe     1987    76.9 38880702    15765.     1
   3 Italy       Europe     1982    75.0 56535636    16537.     2
   4 Spain       Europe     1992    77.6 39549438    18603.     1
   5 Italy       Europe     1987    76.4 56729703    19207.     2
   6 France      Europe     1982    74.9 54433565    20294.     3
   7 Spain       Europe     1997    78.8 39855442    20445.     1
   8 Belgium     Europe     1982    73.9  9856303    20980.     4
   9 Netherlands Europe     1982    76.0 14310401    21399.     5
  10 Austria     Europe     1982    73.2  7574613    21597.     6
  # … with 32 more rows
```
…
