multiple series
…
class: split-40
count: false

.left-code-aes_group-auto[

```r
*gapminder
```
]
 
.right-output-aes_group-auto[

```
  # A tibble: 1,704 x 6
     country     continent  year lifeExp      pop gdpPercap
     <fct>       <fct>     <int>   <dbl>    <int>     <dbl>
   1 Afghanistan Asia       1952    28.8  8425333      779.
   2 Afghanistan Asia       1957    30.3  9240934      821.
   3 Afghanistan Asia       1962    32.0 10267083      853.
   4 Afghanistan Asia       1967    34.0 11537966      836.
   5 Afghanistan Asia       1972    36.1 13079460      740.
   6 Afghanistan Asia       1977    38.4 14880372      786.
   7 Afghanistan Asia       1982    39.9 12881816      978.
   8 Afghanistan Asia       1987    40.8 13867957      852.
   9 Afghanistan Asia       1992    41.7 16317921      649.
  10 Afghanistan Asia       1997    41.8 22227415      635.
  # … with 1,694 more rows
```
…
.left-code-aes_group-auto[

```r
gapminder %>%  
* filter(continent %in% c("Americas", "Oceania"))
```
]
 
.right-output-aes_group-auto[

```
  # A tibble: 324 x 6
     country   continent  year lifeExp      pop gdpPercap
     <fct>     <fct>     <int>   <dbl>    <int>     <dbl>
   1 Argentina Americas   1952    62.5 17876956     5911.
   2 Argentina Americas   1957    64.4 19610538     6857.
   3 Argentina Americas   1962    65.1 21283783     7133.
   4 Argentina Americas   1967    65.6 22934225     8053.
   5 Argentina Americas   1972    67.1 24779799     9443.
   6 Argentina Americas   1977    68.5 26983828    10079.
   7 Argentina Americas   1982    69.9 29341374     8998.
   8 Argentina Americas   1987    70.8 31620918     9140.
   9 Argentina Americas   1992    71.9 33958947     9308.
  10 Argentina Americas   1997    73.3 36203463    10967.
  # … with 314 more rows
```
…
class: split-40
count: false

.left-code-difference_ribbon-auto[

```r
*gapminder
```
]
 
.right-output-difference_ribbon-auto[

```
  # A tibble: 1,704 x 6
     country     continent  year lifeExp      pop gdpPercap
     <fct>       <fct>     <int>   <dbl>    <int>     <dbl>
   1 Afghanistan Asia       1952    28.8  8425333      779.
   2 Afghanistan Asia       1957    30.3  9240934      821.
   3 Afghanistan Asia       1962    32.0 10267083      853.
   4 Afghanistan Asia       1967    34.0 11537966      836.
   5 Afghanistan Asia       1972    36.1 13079460      740.
   6 Afghanistan Asia       1977    38.4 14880372      786.
   7 Afghanistan Asia       1982    39.9 12881816      978.
   8 Afghanistan Asia       1987    40.8 13867957      852.
   9 Afghanistan Asia       1992    41.7 16317921      649.
  10 Afghanistan Asia       1997    41.8 22227415      635.
  # … with 1,694 more rows
```
…
.left-code-difference_ribbon-auto[

```r
gapminder %>%  
* filter(continent == "Oceania")
```
]
 
.right-output-difference_ribbon-auto[

```
  # A tibble: 24 x 6
     country   continent  year lifeExp      pop gdpPercap
     <fct>     <fct>     <int>   <dbl>    <int>     <dbl>
   1 Australia Oceania    1952    69.1  8691212    10040.
   2 Australia Oceania    1957    70.3  9712569    10950.
   3 Australia Oceania    1962    70.9 10794968    12217.
   4 Australia Oceania    1967    71.1 11872264    14526.
   5 Australia Oceania    1972    71.9 13177000    16789.
   6 Australia Oceania    1977    73.5 14074100    18334.
   7 Australia Oceania    1982    74.7 15184200    19477.
   8 Australia Oceania    1987    76.3 16257249    21889.
   9 Australia Oceania    1992    77.6 17481977    23425.
  10 Australia Oceania    1997    78.8 18565243    26998.
  # … with 14 more rows
```
…
.left-code-difference_ribbon-auto[

```r
gapminder %>%  
  filter(continent == "Oceania") %>%  
* mutate(pop_millions = pop/1000000)
```
]
 
.right-output-difference_ribbon-auto[

```
  # A tibble: 24 x 7
     country   continent  year lifeExp      pop gdpPercap pop_millions
     <fct>     <fct>     <int>   <dbl>    <int>     <dbl>        <dbl>
   1 Australia Oceania    1952    69.1  8691212    10040.         8.69
   2 Australia Oceania    1957    70.3  9712569    10950.         9.71
   3 Australia Oceania    1962    70.9 10794968    12217.        10.8 
   4 Australia Oceania    1967    71.1 11872264    14526.        11.9 
   5 Australia Oceania    1972    71.9 13177000    16789.        13.2 
   6 Australia Oceania    1977    73.5 14074100    18334.        14.1 
   7 Australia Oceania    1982    74.7 15184200    19477.        15.2 
   8 Australia Oceania    1987    76.3 16257249    21889.        16.3 
   9 Australia Oceania    1992    77.6 17481977    23425.        17.5 
  10 Australia Oceania    1997    78.8 18565243    26998.        18.6 
  # … with 14 more rows
```
…
```r
gapminder %>%  
  filter(continent == "Oceania") %>%  
  mutate(pop_millions = pop/1000000) ->  
gm_oceania  

*gm_oceania
```
]
 
.right-output-difference_ribbon-auto[

```
  # A tibble: 24 x 7
     country   continent  year lifeExp      pop gdpPercap pop_millions
     <fct>     <fct>     <int>   <dbl>    <int>     <dbl>        <dbl>
   1 Australia Oceania    1952    69.1  8691212    10040.         8.69
   2 Australia Oceania    1957    70.3  9712569    10950.         9.71
   3 Australia Oceania    1962    70.9 10794968    12217.        10.8 
   4 Australia Oceania    1967    71.1 11872264    14526.        11.9 
   5 Australia Oceania    1972    71.9 13177000    16789.        13.2 
   6 Australia Oceania    1977    73.5 14074100    18334.        14.1 
   7 Australia Oceania    1982    74.7 15184200    19477.        15.2 
   8 Australia Oceania    1987    76.3 16257249    21889.        16.3 
   9 Australia Oceania    1992    77.6 17481977    23425.        17.5 
  10 Australia Oceania    1997    78.8 18565243    26998.        18.6 
  # … with 14 more rows
```
…
```r
gapminder %>%  
  filter(continent == "Oceania") %>%  
  mutate(pop_millions = pop/1000000) ->  
gm_oceania  

gm_oceania %>%  
* select(-gdpPercap, -lifeExp, - pop)
```
]
 
.right-output-difference_ribbon-auto[

```
  # A tibble: 24 x 4
     country   continent  year pop_millions
     <fct>     <fct>     <int>        <dbl>
   1 Australia Oceania    1952         8.69
   2 Australia Oceania    1957         9.71
   3 Australia Oceania    1962        10.8 
   4 Australia Oceania    1967        11.9 
   5 Australia Oceania    1972        13.2 
   6 Australia Oceania    1977        14.1 
   7 Australia Oceania    1982        15.2 
   8 Australia Oceania    1987        16.3 
   9 Australia Oceania    1992        17.5 
  10 Australia Oceania    1997        18.6 
  # … with 14 more rows
```
…
gm_oceania %>%  
  select(-gdpPercap, -lifeExp, - pop) %>%  
  pivot_wider(names_from = country,  
              values_from = pop_millions) ->  
gm_oceania_pop_millions_wide  

*gm_oceania   # global data
```
]
 
.right-output-difference_ribbon-auto[

```
  # A tibble: 24 x 7
     country   continent  year lifeExp      pop gdpPercap pop_millions
     <fct>     <fct>     <int>   <dbl>    <int>     <dbl>        <dbl>
   1 Australia Oceania    1952    69.1  8691212    10040.         8.69
   2 Australia Oceania    1957    70.3  9712569    10950.         9.71
   3 Australia Oceania    1962    70.9 10794968    12217.        10.8 
   4 Australia Oceania    1967    71.1 11872264    14526.        11.9 
   5 Australia Oceania    1972    71.9 13177000    16789.        13.2 
   6 Australia Oceania    1977    73.5 14074100    18334.        14.1 
   7 Australia Oceania    1982    74.7 15184200    19477.        15.2 
   8 Australia Oceania    1987    76.3 16257249    21889.        16.3 
   9 Australia Oceania    1992    77.6 17481977    23425.        17.5 
  10 Australia Oceania    1997    78.8 18565243    26998.        18.6 
  # … with 14 more rows
```
…
class: split-40
count: false

.left-code-growth-auto[

```r
*gapminder
```
]
 
.right-output-growth-auto[

```
  # A tibble: 1,704 x 6
     country     continent  year lifeExp      pop gdpPercap
     <fct>       <fct>     <int>   <dbl>    <int>     <dbl>
   1 Afghanistan Asia       1952    28.8  8425333      779.
   2 Afghanistan Asia       1957    30.3  9240934      821.
   3 Afghanistan Asia       1962    32.0 10267083      853.
   4 Afghanistan Asia       1967    34.0 11537966      836.
   5 Afghanistan Asia       1972    36.1 13079460      740.
   6 Afghanistan Asia       1977    38.4 14880372      786.
   7 Afghanistan Asia       1982    39.9 12881816      978.
   8 Afghanistan Asia       1987    40.8 13867957      852.
   9 Afghanistan Asia       1992    41.7 16317921      649.
  10 Afghanistan Asia       1997    41.8 22227415      635.
  # … with 1,694 more rows
```
…
.left-code-growth-auto[

```r
gapminder %>%  
* filter(continent == "Europe")
```
]
 
.right-output-growth-auto[

```
  # A tibble: 360 x 6
     country continent  year lifeExp     pop gdpPercap
     <fct>   <fct>     <int>   <dbl>   <int>     <dbl>
   1 Albania Europe     1952    55.2 1282697     1601.
   2 Albania Europe     1957    59.3 1476505     1942.
   3 Albania Europe     1962    64.8 1728137     2313.
   4 Albania Europe     1967    66.2 1984060     2760.
   5 Albania Europe     1972    67.7 2263554     3313.
   6 Albania Europe     1977    68.9 2509048     3533.
   7 Albania Europe     1982    70.4 2780097     3631.
   8 Albania Europe     1987    72   3075321     3739.
   9 Albania Europe     1992    71.6 3326498     2497.
  10 Albania Europe     1997    73.0 3428038     3193.
  # … with 350 more rows
```
…
.left-code-growth-auto[

```r
gapminder %>%  
  filter(continent == "Europe") %>%  
* filter(year %in% c(1972, 2002))
```
]
 
.right-output-growth-auto[

```
  # A tibble: 60 x 6
     country                continent  year lifeExp      pop gdpPercap
     <fct>                  <fct>     <int>   <dbl>    <int>     <dbl>
   1 Albania                Europe     1972    67.7  2263554     3313.
   2 Albania                Europe     2002    75.7  3508512     4604.
   3 Austria                Europe     1972    70.6  7544201    16662.
   4 Austria                Europe     2002    79.0  8148312    32418.
   5 Belgium                Europe     1972    71.4  9709100    16672.
   6 Belgium                Europe     2002    78.3 10311970    30486.
   7 Bosnia and Herzegovina Europe     1972    67.4  3819000     2860.
   8 Bosnia and Herzegovina Europe     2002    74.1  4165416     6019.
   9 Bulgaria               Europe     1972    70.9  8576200     6597.
  10 Bulgaria               Europe     2002    72.1  7661799     7697.
  # … with 50 more rows
```
…
.left-code-growth-auto[

```r
gapminder %>%  
  filter(continent == "Europe") %>%  
  filter(year %in% c(1972, 2002)) %>%  
* mutate(country = reorder(country, lifeExp, mean))
```
]
 
.right-output-growth-auto[

```
  # A tibble: 60 x 6
     country                continent  year lifeExp      pop gdpPercap
     <fct>                  <fct>     <int>   <dbl>    <int>     <dbl>
   1 Albania                Europe     1972    67.7  2263554     3313.
   2 Albania                Europe     2002    75.7  3508512     4604.
   3 Austria                Europe     1972    70.6  7544201    16662.
   4 Austria                Europe     2002    79.0  8148312    32418.
   5 Belgium                Europe     1972    71.4  9709100    16672.
   6 Belgium                Europe     2002    78.3 10311970    30486.
   7 Bosnia and Herzegovina Europe     1972    67.4  3819000     2860.
   8 Bosnia and Herzegovina Europe     2002    74.1  4165416     6019.
   9 Bulgaria               Europe     1972    70.9  8576200     6597.
  10 Bulgaria               Europe     2002    72.1  7661799     7697.
  # … with 50 more rows
```
…
```r
gapminder %>%  
  filter(continent == "Europe") %>%  
  filter(year %in% c(1972, 2002)) %>%  
  mutate(country = reorder(country, lifeExp, mean)) ->  
gap_72_02_europe  

*gap_72_02_europe
```
]
 
.right-output-growth-auto[

```
  # A tibble: 60 x 6
     country                continent  year lifeExp      pop gdpPercap
     <fct>                  <fct>     <int>   <dbl>    <int>     <dbl>
   1 Albania                Europe     1972    67.7  2263554     3313.
   2 Albania                Europe     2002    75.7  3508512     4604.
   3 Austria                Europe     1972    70.6  7544201    16662.
   4 Austria                Europe     2002    79.0  8148312    32418.
   5 Belgium                Europe     1972    71.4  9709100    16672.
   6 Belgium                Europe     2002    78.3 10311970    30486.
   7 Bosnia and Herzegovina Europe     1972    67.4  3819000     2860.
   8 Bosnia and Herzegovina Europe     2002    74.1  4165416     6019.
   9 Bulgaria               Europe     1972    70.9  8576200     6597.
  10 Bulgaria               Europe     2002    72.1  7661799     7697.
  # … with 50 more rows
```
…
gap_72_02_europe %>%  
* select(-gdpPercap, -pop)
```
]
 
.right-output-growth-auto[

```
  # A tibble: 60 x 4
     country                continent  year lifeExp
     <fct>                  <fct>     <int>   <dbl>
   1 Albania                Europe     1972    67.7
   2 Albania                Europe     2002    75.7
   3 Austria                Europe     1972    70.6
   4 Austria                Europe     2002    79.0
   5 Belgium                Europe     1972    71.4
   6 Belgium                Europe     2002    78.3
   7 Bosnia and Herzegovina Europe     1972    67.4
   8 Bosnia and Herzegovina Europe     2002    74.1
   9 Bulgaria               Europe     1972    70.9
  10 Bulgaria               Europe     2002    72.1
  # … with 50 more rows
```
…
gap_72_02_europe %>%  
  select(-gdpPercap, -pop) %>%  
* pivot_wider(names_from = year,
*             values_from = lifeExp)
```
]
 
.right-output-growth-auto[

```
  # A tibble: 30 x 4
     country                continent `1972` `2002`
     <fct>                  <fct>      <dbl>  <dbl>
   1 Albania                Europe      67.7   75.7
   2 Austria                Europe      70.6   79.0
   3 Belgium                Europe      71.4   78.3
   4 Bosnia and Herzegovina Europe      67.4   74.1
   5 Bulgaria               Europe      70.9   72.1
   6 Croatia                Europe      69.6   74.9
   7 Czech Republic         Europe      70.3   75.5
   8 Denmark                Europe      73.5   77.2
   9 Finland                Europe      70.9   78.4
  10 France                 Europe      72.4   79.6
  # … with 20 more rows
```
…
class: split-40
count: false

.left-code-time_series_heat-auto[

```r
*gapminder
```
]
 
.right-output-time_series_heat-auto[

```
  # A tibble: 1,704 x 6
     country     continent  year lifeExp      pop gdpPercap
     <fct>       <fct>     <int>   <dbl>    <int>     <dbl>
   1 Afghanistan Asia       1952    28.8  8425333      779.
   2 Afghanistan Asia       1957    30.3  9240934      821.
   3 Afghanistan Asia       1962    32.0 10267083      853.
   4 Afghanistan Asia       1967    34.0 11537966      836.
   5 Afghanistan Asia       1972    36.1 13079460      740.
   6 Afghanistan Asia       1977    38.4 14880372      786.
   7 Afghanistan Asia       1982    39.9 12881816      978.
   8 Afghanistan Asia       1987    40.8 13867957      852.
   9 Afghanistan Asia       1992    41.7 16317921      649.
  10 Afghanistan Asia       1997    41.8 22227415      635.
  # … with 1,694 more rows
```
…
.left-code-time_series_heat-auto[

```r
gapminder %>%  
* filter(continent == "Europe")
```
]
 
.right-output-time_series_heat-auto[

```
  # A tibble: 360 x 6
     country continent  year lifeExp     pop gdpPercap
     <fct>   <fct>     <int>   <dbl>   <int>     <dbl>
   1 Albania Europe     1952    55.2 1282697     1601.
   2 Albania Europe     1957    59.3 1476505     1942.
   3 Albania Europe     1962    64.8 1728137     2313.
   4 Albania Europe     1967    66.2 1984060     2760.
   5 Albania Europe     1972    67.7 2263554     3313.
   6 Albania Europe     1977    68.9 2509048     3533.
   7 Albania Europe     1982    70.4 2780097     3631.
   8 Albania Europe     1987    72   3075321     3739.
   9 Albania Europe     1992    71.6 3326498     2497.
  10 Albania Europe     1997    73.0 3428038     3193.
  # … with 350 more rows
```
…
class: split-40
count: false

.left-code-time_series_bump-auto[

```r
*gapminder
```
]
 
.right-output-time_series_bump-auto[

```
  # A tibble: 1,704 x 6
     country     continent  year lifeExp      pop gdpPercap
     <fct>       <fct>     <int>   <dbl>    <int>     <dbl>
   1 Afghanistan Asia       1952    28.8  8425333      779.
   2 Afghanistan Asia       1957    30.3  9240934      821.
   3 Afghanistan Asia       1962    32.0 10267083      853.
   4 Afghanistan Asia       1967    34.0 11537966      836.
   5 Afghanistan Asia       1972    36.1 13079460      740.
   6 Afghanistan Asia       1977    38.4 14880372      786.
   7 Afghanistan Asia       1982    39.9 12881816      978.
   8 Afghanistan Asia       1987    40.8 13867957      852.
   9 Afghanistan Asia       1992    41.7 16317921      649.
  10 Afghanistan Asia       1997    41.8 22227415      635.
  # … with 1,694 more rows
```
…
.left-code-time_series_bump-auto[

```r
gapminder %>%  
* filter(country %in% c("Austria", "Belgium",
*                       "Norway", "Netherlands",
*                       "Spain", "Italy","France"))
```
]
 
.right-output-time_series_bump-auto[

```
  # A tibble: 84 x 6
     country continent  year lifeExp     pop gdpPercap
     <fct>   <fct>     <int>   <dbl>   <int>     <dbl>
   1 Austria Europe     1952    66.8 6927772     6137.
   2 Austria Europe     1957    67.5 6965860     8843.
   3 Austria Europe     1962    69.5 7129864    10751.
   4 Austria Europe     1967    70.1 7376998    12835.
   5 Austria Europe     1972    70.6 7544201    16662.
   6 Austria Europe     1977    72.2 7568430    19749.
   7 Austria Europe     1982    73.2 7574613    21597.
   8 Austria Europe     1987    74.9 7578903    23688.
   9 Austria Europe     1992    76.0 7914969    27042.
  10 Austria Europe     1997    77.5 8069876    29096.
  # … with 74 more rows
```
…
.left-code-time_series_bump-auto[

```r
gapminder %>%  
  filter(country %in% c("Austria", "Belgium",  
                        "Norway", "Netherlands",  
                        "Spain", "Italy","France")) %>%  
* filter(year > 1980)
```
]
 
.right-output-time_series_bump-auto[

```
  # A tibble: 42 x 6
     country continent  year lifeExp      pop gdpPercap
     <fct>   <fct>     <int>   <dbl>    <int>     <dbl>
   1 Austria Europe     1982    73.2  7574613    21597.
   2 Austria Europe     1987    74.9  7578903    23688.
   3 Austria Europe     1992    76.0  7914969    27042.
   4 Austria Europe     1997    77.5  8069876    29096.
   5 Austria Europe     2002    79.0  8148312    32418.
   6 Austria Europe     2007    79.8  8199783    36126.
   7 Belgium Europe     1982    73.9  9856303    20980.
   8 Belgium Europe     1987    75.4  9870200    22526.
   9 Belgium Europe     1992    76.5 10045622    25576.
  10 Belgium Europe     1997    77.5 10199787    27561.
  # … with 32 more rows
```
…
