continuous x continuous
…
.left-panel-dense-auto[

```r
set.seed(2022)  
*tibble(my_x = rnorm(2000),
*      my_y = my_x + rnorm(2000))
```
]
 
.right-panel-dense-auto[

```
  # A tibble: 2,000 x 2
       my_x    my_y
      <dbl>   <dbl>
   1  0.900  0.355 
   2 -1.17  -0.387 
   3 -0.897 -0.599 
   4 -1.44   0.0747
   5 -0.331  0.582 
   6 -2.90  -2.70  
   7 -1.06   1.40  
   8  0.278 -0.248 
   9  0.749 -0.0528
  10  0.242  0.926 
  # … with 1,990 more rows
```
…
