Paletteer
…
.left-code-names_d-auto[

```r
paletteer::palettes_d_names %>%  
* group_by(package)
```
]
 
.right-output-names_d-auto[

```
# A tibble: 1,431 x 4
# Groups:   package [43]
   package   palette   length type       
   <chr>     <chr>      <int> <chr>      
 1 awtools   a_palette      8 qualitative
 2 awtools   bpalette      16 qualitative
 3 awtools   gpalette       4 qualitative
 4 awtools   mpalette       9 qualitative
 5 awtools   spalette       6 qualitative
 6 basetheme brutal        10 sequential 
 7 basetheme clean         10 sequential 
 8 basetheme dark          10 sequential 
 9 basetheme deepblue      10 sequential 
10 basetheme default        8 qualitative
# … with 1,421 more rows
```
…
.left-code-names_d-auto[

```r
paletteer::palettes_d_names %>%  
  group_by(package) %>%  
* count()
```
]
 
.right-output-names_d-auto[

```
# A tibble: 43 x 2
# Groups:   package [43]
   package           n
   <chr>         <int>
 1 awtools           5
 2 basetheme         9
 3 calecopal        22
 4 colorblindr       2
 5 colRoz           54
 6 dichromat        17
 7 DresdenColor     18
 8 dutchmasters      6
 9 fishualize       92
10 ggpomological     2
# … with 33 more rows
```
…
paletteer::palettes_c_names %>%  
* group_by(package)
```
]
 
.right-output-names_d-auto[

```
[1] 1431
```

```
# A tibble: 315 x 3
# Groups:   package [9]
   package       palette    type      
   <chr>         <chr>      <chr>     
 1 gameofthrones baratheon  sequential
 2 gameofthrones greyjoy    sequential
 3 gameofthrones jon_snow   sequential
 4 gameofthrones lannister  sequential
 5 gameofthrones martell    sequential
 6 gameofthrones stark      sequential
 7 gameofthrones stark2     sequential
 8 gameofthrones targaryen  sequential
 9 gameofthrones targaryen2 sequential
10 gameofthrones tully      sequential
# … with 305 more rows
```
…
