A Minimal #TidyTuesday Flipbook
…
class: split-40
count: false
.column[.content[

```r
*data_tidytuesday
```
]]
.column[.content[

```
# A tibble: 1,565 x 88
   user_id status_id created_at          screen_name text  source
   <chr>   <chr>     <dttm>              <chr>       <chr> <chr> 
 1 161366… 10752648… 2018-12-19 05:41:40 Eeysirhc    "#ti… Twitt…
 2 161366… 10727286… 2018-12-12 05:43:24 Eeysirhc    "#ti… Twitt…
 3 161366… 10744881… 2018-12-17 02:15:24 Eeysirhc    "I r… Twitt…
 4 318198… 10751972… 2018-12-19 01:12:56 clairemcwh… "@th… Twitt…
 5 470648… 10751869… 2018-12-19 00:32:07 stevie_t13  #Bec… Twitt…
 6 470648… 10725183… 2018-12-11 15:47:52 stevie_t13  #Ari… Twitt…
 7 124181… 10746644… 2018-12-17 13:55:51 thomas_mock "The… Twitt…
 8 124181… 10750289… 2018-12-18 14:04:19 thomas_mock "#r4… Twitt…
 9 124181… 10721630… 2018-12-10 16:15:56 thomas_mock "The… Twitt…
10 124181… 10751734… 2018-12-18 23:38:18 thomas_mock "@js… Twitt…
# … with 1,555 more rows, and 82 more variables: display_text_width <dbl>,
#   reply_to_status_id <chr>, reply_to_user_id <chr>,
#   reply_to_screen_name <chr>, is_quote <lgl>, is_retweet <lgl>,
#   favorite_count <int>, retweet_count <int>, hashtags <list>,
#   symbols <list>, urls_url <list>, urls_t.co <list>,
#   urls_expanded_url <list>, media_url <list>, media_t.co <list>,
#   media_expanded_url <list>, media_type <list>, ext_media_url <list>,
#   ext_media_t.co <list>, ext_media_expanded_url <list>,
#   ext_media_type <chr>, mentions_user_id <list>,
…
```r
 data_tidytuesday %>%  
* mutate(day = lubridate::date(created_at))
```
]]
.column[.content[

```
# A tibble: 1,565 x 89
   user_id status_id created_at          screen_name text  source
   <chr>   <chr>     <dttm>              <chr>       <chr> <chr> 
 1 161366… 10752648… 2018-12-19 05:41:40 Eeysirhc    "#ti… Twitt…
 2 161366… 10727286… 2018-12-12 05:43:24 Eeysirhc    "#ti… Twitt…
 3 161366… 10744881… 2018-12-17 02:15:24 Eeysirhc    "I r… Twitt…
 4 318198… 10751972… 2018-12-19 01:12:56 clairemcwh… "@th… Twitt…
 5 470648… 10751869… 2018-12-19 00:32:07 stevie_t13  #Bec… Twitt…
 6 470648… 10725183… 2018-12-11 15:47:52 stevie_t13  #Ari… Twitt…
 7 124181… 10746644… 2018-12-17 13:55:51 thomas_mock "The… Twitt…
 8 124181… 10750289… 2018-12-18 14:04:19 thomas_mock "#r4… Twitt…
 9 124181… 10721630… 2018-12-10 16:15:56 thomas_mock "The… Twitt…
10 124181… 10751734… 2018-12-18 23:38:18 thomas_mock "@js… Twitt…
# … with 1,555 more rows, and 83 more variables: display_text_width <dbl>,
#   reply_to_status_id <chr>, reply_to_user_id <chr>,
#   reply_to_screen_name <chr>, is_quote <lgl>, is_retweet <lgl>,
#   favorite_count <int>, retweet_count <int>, hashtags <list>,
#   symbols <list>, urls_url <list>, urls_t.co <list>,
#   urls_expanded_url <list>, media_url <list>, media_t.co <list>,
#   media_expanded_url <list>, media_type <list>, ext_media_url <list>,
#   ext_media_t.co <list>, ext_media_expanded_url <list>,
#   ext_media_type <chr>, mentions_user_id <list>,
…
```r
 data_tidytuesday %>%  
  mutate(day = lubridate::date(created_at)) %>%  
* group_by(day)
```
]]
.column[.content[

```
# A tibble: 1,565 x 89
# Groups:   day [237]
   user_id status_id created_at          screen_name text  source
   <chr>   <chr>     <dttm>              <chr>       <chr> <chr> 
 1 161366… 10752648… 2018-12-19 05:41:40 Eeysirhc    "#ti… Twitt…
 2 161366… 10727286… 2018-12-12 05:43:24 Eeysirhc    "#ti… Twitt…
 3 161366… 10744881… 2018-12-17 02:15:24 Eeysirhc    "I r… Twitt…
 4 318198… 10751972… 2018-12-19 01:12:56 clairemcwh… "@th… Twitt…
 5 470648… 10751869… 2018-12-19 00:32:07 stevie_t13  #Bec… Twitt…
 6 470648… 10725183… 2018-12-11 15:47:52 stevie_t13  #Ari… Twitt…
 7 124181… 10746644… 2018-12-17 13:55:51 thomas_mock "The… Twitt…
 8 124181… 10750289… 2018-12-18 14:04:19 thomas_mock "#r4… Twitt…
 9 124181… 10721630… 2018-12-10 16:15:56 thomas_mock "The… Twitt…
10 124181… 10751734… 2018-12-18 23:38:18 thomas_mock "@js… Twitt…
# … with 1,555 more rows, and 83 more variables: display_text_width <dbl>,
#   reply_to_status_id <chr>, reply_to_user_id <chr>,
#   reply_to_screen_name <chr>, is_quote <lgl>, is_retweet <lgl>,
#   favorite_count <int>, retweet_count <int>, hashtags <list>,
#   symbols <list>, urls_url <list>, urls_t.co <list>,
#   urls_expanded_url <list>, media_url <list>, media_t.co <list>,
#   media_expanded_url <list>, media_type <list>, ext_media_url <list>,
#   ext_media_t.co <list>, ext_media_expanded_url <list>,
#   ext_media_type <chr>, mentions_user_id <list>,
…
```r
 data_tidytuesday %>%  
  mutate(day = lubridate::date(created_at)) %>%  
  group_by(day) %>%  
* tally()
```
]]
.column[.content[

```
# A tibble: 237 x 2
   day            n
   <date>     <int>
 1 2018-04-02     4
 2 2018-04-03    25
 3 2018-04-04    16
 4 2018-04-05     4
 5 2018-04-06     5
 6 2018-04-07     1
 7 2018-04-08     4
 8 2018-04-09    16
 9 2018-04-10    20
10 2018-04-11    10
# … with 227 more rows
```
…
```r
 data_tidytuesday %>%  
  mutate(day = lubridate::date(created_at)) %>%  
  group_by(day) %>%  
  tally() %>%  
* mutate(day_of_week = lubridate::wday(day, label = T))
```
]]
.column[.content[

```
# A tibble: 237 x 3
   day            n day_of_week
   <date>     <int> <ord>      
 1 2018-04-02     4 Mon        
 2 2018-04-03    25 Tue        
 3 2018-04-04    16 Wed        
 4 2018-04-05     4 Thu        
 5 2018-04-06     5 Fri        
 6 2018-04-07     1 Sat        
 7 2018-04-08     4 Sun        
 8 2018-04-09    16 Mon        
 9 2018-04-10    20 Tue        
10 2018-04-11    10 Wed        
# … with 227 more rows
```
…
