Chile
…
.column[.content[

```r
# code to read in the data and clean it is done for you here
fisheries_2015_raw %>%  
* as_tibble()   # show data in "tidyverse" way, as_tibble
```
]]
.column[.content[

```
# A tibble: 217 x 4
   Country       Capture    Aquaculture Total     
   <chr>         <chr>      <chr>       <chr>     
 1 China         17,800,000 63,700,000  81,500,000
 2 Indonesia     6,584,419  16,600,000  23,200,000
 3 India         5,082,332  5,703,002   10,800,000
 4 Vietnam       2,785,940  3,634,531   6,420,471 
 5 United States 4,931,017  444,369     5,375,386 
 6 Russia        4,773,413  173,840     4,947,253 
 7 Japan         3,275,263  1,067,994   4,343,257 
 8 Philippines   2,027,992  2,200,914   4,228,906 
 9 Peru          3,811,802  100,187     3,911,989 
10 Bangladesh    1,674,770  2,203,554   3,878,324 
# … with 207 more rows
```
…
.column[.content[

```r
# code to read in the data and clean it is done for you here
fisheries_2015_raw %>%  
  as_tibble() %>%  # show data in "tidyverse" way, as_tibble
* janitor::clean_names(case = "snake")   # snake is the default too
```
]]
.column[.content[

```
# A tibble: 217 x 4
   country       capture    aquaculture total     
   <chr>         <chr>      <chr>       <chr>     
 1 China         17,800,000 63,700,000  81,500,000
 2 Indonesia     6,584,419  16,600,000  23,200,000
 3 India         5,082,332  5,703,002   10,800,000
 4 Vietnam       2,785,940  3,634,531   6,420,471 
 5 United States 4,931,017  444,369     5,375,386 
 6 Russia        4,773,413  173,840     4,947,253 
 7 Japan         3,275,263  1,067,994   4,343,257 
 8 Philippines   2,027,992  2,200,914   4,228,906 
 9 Peru          3,811,802  100,187     3,911,989 
10 Bangladesh    1,674,770  2,203,554   3,878,324 
# … with 207 more rows
```
…
.column[.content[

```r
# code to read in the data and clean it is done for you here
fisheries_2015_raw %>%  
  as_tibble() %>%  # show data in "tidyverse" way, as_tibble
  janitor::clean_names(case = "snake") %>%  # snake is the default too
* mutate(capture =
*          readr::parse_number(x = capture))
```
]]
.column[.content[

```
# A tibble: 217 x 4
   country        capture aquaculture total     
   <chr>            <dbl> <chr>       <chr>     
 1 China         17800000 63,700,000  81,500,000
 2 Indonesia      6584419 16,600,000  23,200,000
 3 India          5082332 5,703,002   10,800,000
 4 Vietnam        2785940 3,634,531   6,420,471 
 5 United States  4931017 444,369     5,375,386 
 6 Russia         4773413 173,840     4,947,253 
 7 Japan          3275263 1,067,994   4,343,257 
 8 Philippines    2027992 2,200,914   4,228,906 
 9 Peru           3811802 100,187     3,911,989 
10 Bangladesh     1674770 2,203,554   3,878,324 
# … with 207 more rows
```
…
```r
# code to read in the data and clean it is done for you here
fisheries_2015_raw %>%  
  as_tibble() %>%  # show data in "tidyverse" way, as_tibble
  janitor::clean_names(case = "snake") %>%  # snake is the default too
  mutate(capture =  
           readr::parse_number(x = capture)) %>%  
* mutate(aquaculture =
*          readr::parse_number(x = aquaculture))
```
]]
.column[.content[

```
# A tibble: 217 x 4
   country        capture aquaculture total     
   <chr>            <dbl>       <dbl> <chr>     
 1 China         17800000    63700000 81,500,000
 2 Indonesia      6584419    16600000 23,200,000
 3 India          5082332     5703002 10,800,000
 4 Vietnam        2785940     3634531 6,420,471 
 5 United States  4931017      444369 5,375,386 
 6 Russia         4773413      173840 4,947,253 
 7 Japan          3275263     1067994 4,343,257 
 8 Philippines    2027992     2200914 4,228,906 
 9 Peru           3811802      100187 3,911,989 
10 Bangladesh     1674770     2203554 3,878,324 
# … with 207 more rows
```
…
```
# A tibble: 217 x 4
   country        capture aquaculture    total
   <chr>            <dbl>       <dbl>    <dbl>
 1 China         17800000    63700000 81500000
 2 Indonesia      6584419    16600000 23200000
 3 India          5082332     5703002 10800000
 4 Vietnam        2785940     3634531  6420471
 5 United States  4931017      444369  5375386
 6 Russia         4773413      173840  4947253
 7 Japan          3275263     1067994  4343257
 8 Philippines    2027992     2200914  4228906
 9 Peru           3811802      100187  3911989
10 Bangladesh     1674770     2203554  3878324
# … with 207 more rows
```
…
```
# A tibble: 217 x 4
   country        capture aquaculture    total
   <chr>            <dbl>       <dbl>    <dbl>
 1 China         17800000    63700000 81500000
 2 Indonesia      6584419    16600000 23200000
 3 India          5082332     5703002 10800000
 4 Vietnam        2785940     3634531  6420471
 5 United States  4931017      444369  5375386
 6 Russia         4773413      173840  4947253
 7 Japan          3275263     1067994  4343257
 8 Philippines    2027992     2200914  4228906
 9 Peru           3811802      100187  3911989
10 Bangladesh     1674770     2203554  3878324
# … with 207 more rows
```
…
```
# A tibble: 217 x 5
   country        capture aquaculture    total region            
   <chr>            <dbl>       <dbl>    <dbl> <chr>             
 1 China         17800000    63700000 81500000 Eastern Asia      
 2 Indonesia      6584419    16600000 23200000 South-Eastern Asia
 3 India          5082332     5703002 10800000 Southern Asia     
 4 Vietnam        2785940     3634531  6420471 South-Eastern Asia
 5 United States  4931017      444369  5375386 Northern America  
 6 Russia         4773413      173840  4947253 Eastern Europe    
 7 Japan          3275263     1067994  4343257 Eastern Asia      
 8 Philippines    2027992     2200914  4228906 South-Eastern Asia
 9 Peru           3811802      100187  3911989 South America     
10 Bangladesh     1674770     2203554  3878324 Southern Asia     
# … with 207 more rows
```
…
```
# A tibble: 217 x 6
   country        capture aquaculture    total region             iso3c
   <chr>            <dbl>       <dbl>    <dbl> <chr>              <chr>
 1 China         17800000    63700000 81500000 Eastern Asia       CHN  
 2 Indonesia      6584419    16600000 23200000 South-Eastern Asia IDN  
 3 India          5082332     5703002 10800000 Southern Asia      IND  
 4 Vietnam        2785940     3634531  6420471 South-Eastern Asia VNM  
 5 United States  4931017      444369  5375386 Northern America   USA  
 6 Russia         4773413      173840  4947253 Eastern Europe     RUS  
 7 Japan          3275263     1067994  4343257 Eastern Asia       JPN  
 8 Philippines    2027992     2200914  4228906 South-Eastern Asia PHL  
 9 Peru           3811802      100187  3911989 South America      PER  
10 Bangladesh     1674770     2203554  3878324 Southern Asia      BGD  
# … with 207 more rows
```
…
```
# A tibble: 216 x 6
   country        capture aquaculture    total region             iso3c
   <chr>            <dbl>       <dbl>    <dbl> <chr>              <chr>
 1 China         17800000    63700000 81500000 Eastern Asia       CHN  
 2 Indonesia      6584419    16600000 23200000 South-Eastern Asia IDN  
 3 India          5082332     5703002 10800000 Southern Asia      IND  
 4 Vietnam        2785940     3634531  6420471 South-Eastern Asia VNM  
 5 United States  4931017      444369  5375386 Northern America   USA  
 6 Russia         4773413      173840  4947253 Eastern Europe     RUS  
 7 Japan          3275263     1067994  4343257 Eastern Asia       JPN  
 8 Philippines    2027992     2200914  4228906 South-Eastern Asia PHL  
 9 Peru           3811802      100187  3911989 South America      PER  
10 Bangladesh     1674770     2203554  3878324 Southern Asia      BGD  
# … with 206 more rows
```
…
```
# A tibble: 216 x 6
   country        capture aquaculture    total region             iso3c
   <chr>            <dbl>       <dbl>    <dbl> <chr>              <chr>
 1 China         17800000    63700000 81500000 Eastern Asia       CHN  
 2 Indonesia      6584419    16600000 23200000 South-Eastern Asia IDN  
 3 India          5082332     5703002 10800000 Southern Asia      IND  
 4 Vietnam        2785940     3634531  6420471 South-Eastern Asia VNM  
 5 United States  4931017      444369  5375386 Northern America   USA  
 6 Russia         4773413      173840  4947253 Eastern Europe     RUS  
 7 Japan          3275263     1067994  4343257 Eastern Asia       JPN  
 8 Philippines    2027992     2200914  4228906 South-Eastern Asia PHL  
 9 Peru           3811802      100187  3911989 South America      PER  
10 Bangladesh     1674770     2203554  3878324 Southern Asia      BGD  
# … with 206 more rows
```
…
```
# A tibble: 216 x 6
   country        capture aquaculture    total region             iso3c
   <chr>            <dbl>       <dbl>    <dbl> <chr>              <chr>
 1 China         17800000    63700000 81500000 Eastern Asia       CHN  
 2 Indonesia      6584419    16600000 23200000 South-Eastern Asia IDN  
 3 India          5082332     5703002 10800000 Southern Asia      IND  
 4 Vietnam        2785940     3634531  6420471 South-Eastern Asia VNM  
 5 United States  4931017      444369  5375386 Northern America   USA  
 6 Russia         4773413      173840  4947253 Eastern Europe     RUS  
 7 Japan          3275263     1067994  4343257 Eastern Asia       JPN  
 8 Philippines    2027992     2200914  4228906 South-Eastern Asia PHL  
 9 Peru           3811802      100187  3911989 South America      PER  
10 Bangladesh     1674770     2203554  3878324 Southern Asia      BGD  
# … with 206 more rows
```
…
```
# A tibble: 216 x 7
   country       capture aquaculture   total region          iso3c peru_or_chile
   <chr>           <dbl>       <dbl>   <dbl> <chr>           <chr> <lgl>        
 1 China        17800000    63700000  8.15e7 Eastern Asia    CHN   FALSE        
 2 Indonesia     6584419    16600000  2.32e7 South-Eastern … IDN   FALSE        
 3 India         5082332     5703002  1.08e7 Southern Asia   IND   FALSE        
 4 Vietnam       2785940     3634531  6.42e6 South-Eastern … VNM   FALSE        
 5 United Stat…  4931017      444369  5.38e6 Northern Ameri… USA   FALSE        
 6 Russia        4773413      173840  4.95e6 Eastern Europe  RUS   FALSE        
 7 Japan         3275263     1067994  4.34e6 Eastern Asia    JPN   FALSE        
 8 Philippines   2027992     2200914  4.23e6 South-Eastern … PHL   FALSE        
 9 Peru          3811802      100187  3.91e6 South America   PER   TRUE         
10 Bangladesh    1674770     2203554  3.88e6 Southern Asia   BGD   FALSE        
# … with 206 more rows
```
…
class: split-40
count: false

.column[.content[

```r
# Making a subset of the data
*fisheries
```
]]
.column[.content[

```
# A tibble: 216 x 7
   country       capture aquaculture   total region          iso3c peru_or_chile
   <chr>           <dbl>       <dbl>   <dbl> <chr>           <chr> <lgl>        
 1 China        17800000    63700000  8.15e7 Eastern Asia    CHN   FALSE        
 2 Indonesia     6584419    16600000  2.32e7 South-Eastern … IDN   FALSE        
 3 India         5082332     5703002  1.08e7 Southern Asia   IND   FALSE        
 4 Vietnam       2785940     3634531  6.42e6 South-Eastern … VNM   FALSE        
 5 United Stat…  4931017      444369  5.38e6 Northern Ameri… USA   FALSE        
 6 Russia        4773413      173840  4.95e6 Eastern Europe  RUS   FALSE        
 7 Japan         3275263     1067994  4.34e6 Eastern Asia    JPN   FALSE        
 8 Philippines   2027992     2200914  4.23e6 South-Eastern … PHL   FALSE        
 9 Peru          3811802      100187  3.91e6 South America   PER   TRUE         
10 Bangladesh    1674770     2203554  3.88e6 Southern Asia   BGD   FALSE        
# … with 206 more rows
```
…
.column[.content[

```r
library(gapminder)  
*gapminder
```
]]
.column[.content[

```
# A tibble: 1,704 x 6
   country     continent  year lifeExp      pop gdpPercap
   <fct>       <fct>     <int>   <dbl>    <int>     <dbl>
 1 Afghanistan Asia       1952    28.8  8425333      779.
 2 Afghanistan Asia       1957    30.3  9240934      821.
 3 Afghanistan Asia       1962    32.0 10267083      853.
 4 Afghanistan Asia       1967    34.0 11537966      836.
 5 Afghanistan Asia       1972    36.1 13079460      740.
 6 Afghanistan Asia       1977    38.4 14880372      786.
 7 Afghanistan Asia       1982    39.9 12881816      978.
 8 Afghanistan Asia       1987    40.8 13867957      852.
 9 Afghanistan Asia       1992    41.7 16317921      649.
10 Afghanistan Asia       1997    41.8 22227415      635.
# … with 1,694 more rows
```
…
.column[.content[

```r
library(gapminder)  
gapminder %>%  
* filter(year == 2002)
```
]]
.column[.content[

```
# A tibble: 142 x 6
   country     continent  year lifeExp       pop gdpPercap
   <fct>       <fct>     <int>   <dbl>     <int>     <dbl>
 1 Afghanistan Asia       2002    42.1  25268405      727.
 2 Albania     Europe     2002    75.7   3508512     4604.
 3 Algeria     Africa     2002    71.0  31287142     5288.
 4 Angola      Africa     2002    41.0  10866106     2773.
 5 Argentina   Americas   2002    74.3  38331121     8798.
 6 Australia   Oceania    2002    80.4  19546792    30688.
 7 Austria     Europe     2002    79.0   8148312    32418.
 8 Bahrain     Asia       2002    74.8    656397    23404.
 9 Bangladesh  Asia       2002    62.0 135656790     1136.
10 Belgium     Europe     2002    78.3  10311970    30486.
# … with 132 more rows
```
…
.column[.content[

```r
library(gapminder)  
gapminder %>%  
  filter(year == 2002) ->  
gm_2002  

*gm_2002
```
]]
.column[.content[

```
# A tibble: 142 x 6
   country     continent  year lifeExp       pop gdpPercap
   <fct>       <fct>     <int>   <dbl>     <int>     <dbl>
 1 Afghanistan Asia       2002    42.1  25268405      727.
 2 Albania     Europe     2002    75.7   3508512     4604.
 3 Algeria     Africa     2002    71.0  31287142     5288.
 4 Angola      Africa     2002    41.0  10866106     2773.
 5 Argentina   Americas   2002    74.3  38331121     8798.
 6 Australia   Oceania    2002    80.4  19546792    30688.
 7 Austria     Europe     2002    79.0   8148312    32418.
 8 Bahrain     Asia       2002    74.8    656397    23404.
 9 Bangladesh  Asia       2002    62.0 135656790     1136.
10 Belgium     Europe     2002    78.3  10311970    30486.
# … with 132 more rows
```
…
```r
library(gapminder)  
gapminder %>%  
  filter(year == 2002) ->  
gm_2002  

gm_2002 %>%  
* filter(continent == "Americas")
```
]]
.column[.content[

```
# A tibble: 25 x 6
   country            continent  year lifeExp       pop gdpPercap
   <fct>              <fct>     <int>   <dbl>     <int>     <dbl>
 1 Argentina          Americas   2002    74.3  38331121     8798.
 2 Bolivia            Americas   2002    63.9   8445134     3413.
 3 Brazil             Americas   2002    71.0 179914212     8131.
 4 Canada             Americas   2002    79.8  31902268    33329.
 5 Chile              Americas   2002    77.9  15497046    10779.
 6 Colombia           Americas   2002    71.7  41008227     5755.
 7 Costa Rica         Americas   2002    78.1   3834934     7723.
 8 Cuba               Americas   2002    77.2  11226999     6341.
 9 Dominican Republic Americas   2002    70.8   8650322     4564.
10 Ecuador            Americas   2002    74.2  12921234     5773.
# … with 15 more rows
```
…
.column[.content[

```r
runif(30) %>%  
  cumsum() %>%  
  sqrt() %>%  
* tibble(outcome = .)
```
]]
.column[.content[

```
# A tibble: 30 x 1
   outcome
     <dbl>
 1   0.419
 2   0.595
 3   1.14 
 4   1.50 
 5   1.66 
 6   1.88 
 7   1.96 
 8   2.09 
 9   2.21 
10   2.36 
# … with 20 more rows
```
…
.column[.content[

```r
runif(30) %>%  
  cumsum() %>%  
  sqrt() %>%  
  tibble(outcome = .) %>%  
* mutate(time_period = row_number())
```
]]
.column[.content[

```
# A tibble: 30 x 2
   outcome time_period
     <dbl>       <int>
 1   0.508           1
 2   1.07            2
 3   1.29            3
 4   1.42            4
 5   1.63            5
 6   1.91            6
 7   2.11            7
 8   2.25            8
 9   2.36            9
10   2.49           10
# … with 20 more rows
```
…
