annotation in ggplot
…
```
  # A tibble: 419 x 24
  # Groups:   CountryAbb [35]
      year ccode CountryAbb session N_full CountryName PctAgreeUS PctAgreeRUSSIA
     <int> <dbl> <chr>        <int>  <int> <chr>       <chr>      <chr>         
   1  1950     2 USA              5     53 "United St… 1          .1730769      
   2  1955     2 USA             10     27 "United St… 1          .1481481      
   3  1960     2 USA             15    103 "United St… 1          .2330097      
   4  1965     2 USA             20     40 "United St… 1          .225          
   5  1970     2 USA             25     67 "United St… 1          .1343284      
   6  1975     2 USA             30     69 "United St… 1          .2173913      
   7  1980     2 USA             35    103 "United St… 1          .1262136      
   8  1985     2 USA             40    152 "United St… 1          .1125828      
   9  1990     2 USA             45     84 "United St… 1          .1428571      
  10  1995     2 USA             50     81 "United St… 1          .3580247      
  # … with 409 more rows, and 16 more variables: PctAgreeBrazil <chr>,
  #   PctAgreeChina <chr>, PctAgreeIndia <chr>, PctAgreeIsrael <chr>,
  #   yObs1 <int>, yObs2 <int>, yObs3 <int>, Idealpoint <dbl>, bornyear <dbl>,
  #   g77 <dbl>, unsc_region <fct>, `Percent agreement with US` <dbl>,
  #   eu28 <chr>, continent <chr>, Region <chr>, YearFct <fct>
```
---
count: false

```
  # A tibble: 419 x 25
  # Groups:   CountryAbb [35]
      year ccode CountryAbb session N_full CountryName PctAgreeUS PctAgreeRUSSIA
     <int> <dbl> <chr>        <int>  <int> <chr>       <chr>      <chr>         
   1  1950     2 USA              5     53 "United St… 1          .1730769      
   2  1955     2 USA             10     27 "United St… 1          .1481481      
   3  1960     2 USA             15    103 "United St… 1          .2330097      
   4  1965     2 USA             20     40 "United St… 1          .225          
   5  1970     2 USA             25     67 "United St… 1          .1343284      
   6  1975     2 USA             30     69 "United St… 1          .2173913      
   7  1980     2 USA             35    103 "United St… 1          .1262136      
   8  1985     2 USA             40    152 "United St… 1          .1125828      
   9  1990     2 USA             45     84 "United St… 1          .1428571      
  10  1995     2 USA             50     81 "United St… 1          .3580247      
  # … with 409 more rows, and 17 more variables: PctAgreeBrazil <chr>,
  #   PctAgreeChina <chr>, PctAgreeIndia <chr>, PctAgreeIsrael <chr>,
  #   yObs1 <int>, yObs2 <int>, yObs3 <int>, Idealpoint <dbl>, bornyear <dbl>,
  #   g77 <dbl>, unsc_region <fct>, `Percent agreement with US` <dbl>,
  #   eu28 <chr>, continent <chr>, Region <chr>, YearFct <fct>, mean_ideal <dbl>
```
---
count: false

```
  # A tibble: 419 x 25
      year ccode CountryAbb session N_full CountryName PctAgreeUS PctAgreeRUSSIA
     <int> <dbl> <chr>        <int>  <int> <chr>       <chr>      <chr>         
   1  1950     2 USA              5     53 "United St… 1          .1730769      
   2  1955     2 USA             10     27 "United St… 1          .1481481      
   3  1960     2 USA             15    103 "United St… 1          .2330097      
   4  1965     2 USA             20     40 "United St… 1          .225          
   5  1970     2 USA             25     67 "United St… 1          .1343284      
   6  1975     2 USA             30     69 "United St… 1          .2173913      
   7  1980     2 USA             35    103 "United St… 1          .1262136      
   8  1985     2 USA             40    152 "United St… 1          .1125828      
   9  1990     2 USA             45     84 "United St… 1          .1428571      
  10  1995     2 USA             50     81 "United St… 1          .3580247      
  # … with 409 more rows, and 17 more variables: PctAgreeBrazil <chr>,
  #   PctAgreeChina <chr>, PctAgreeIndia <chr>, PctAgreeIsrael <chr>,
  #   yObs1 <int>, yObs2 <int>, yObs3 <int>, Idealpoint <dbl>, bornyear <dbl>,
  #   g77 <dbl>, unsc_region <fct>, `Percent agreement with US` <dbl>,
  #   eu28 <chr>, continent <chr>, Region <chr>, YearFct <fct>, mean_ideal <dbl>
```
---
count: false

```
  # A tibble: 419 x 25
      year ccode CountryAbb session N_full CountryName PctAgreeUS PctAgreeRUSSIA
     <int> <dbl> <chr>        <int>  <int> <chr>       <chr>      <chr>         
   1  1950     2 USA              5     53 "United St… 1          .1730769      
   2  1955     2 USA             10     27 "United St… 1          .1481481      
   3  1960     2 USA             15    103 "United St… 1          .2330097      
   4  1965     2 USA             20     40 "United St… 1          .225          
   5  1970     2 USA             25     67 "United St… 1          .1343284      
   6  1975     2 USA             30     69 "United St… 1          .2173913      
   7  1980     2 USA             35    103 "United St… 1          .1262136      
   8  1985     2 USA             40    152 "United St… 1          .1125828      
   9  1990     2 USA             45     84 "United St… 1          .1428571      
  10  1995     2 USA             50     81 "United St… 1          .3580247      
  # … with 409 more rows, and 17 more variables: PctAgreeBrazil <chr>,
  #   PctAgreeChina <chr>, PctAgreeIndia <chr>, PctAgreeIsrael <chr>,
  #   yObs1 <int>, yObs2 <int>, yObs3 <int>, Idealpoint <dbl>, bornyear <dbl>,
  #   g77 <dbl>, unsc_region <fct>, `Percent agreement with US` <dbl>,
  #   eu28 <chr>, continent <chr>, Region <chr>, YearFct <fct>, mean_ideal <dbl>
```
---
count: false

```
  # A tibble: 419 x 25
      year ccode CountryAbb session N_full CountryName PctAgreeUS PctAgreeRUSSIA
     <int> <dbl> <fct>        <int>  <int> <chr>       <chr>      <chr>         
   1  1950     2 USA              5     53 "United St… 1          .1730769      
   2  1955     2 USA             10     27 "United St… 1          .1481481      
   3  1960     2 USA             15    103 "United St… 1          .2330097      
   4  1965     2 USA             20     40 "United St… 1          .225          
   5  1970     2 USA             25     67 "United St… 1          .1343284      
   6  1975     2 USA             30     69 "United St… 1          .2173913      
   7  1980     2 USA             35    103 "United St… 1          .1262136      
   8  1985     2 USA             40    152 "United St… 1          .1125828      
   9  1990     2 USA             45     84 "United St… 1          .1428571      
  10  1995     2 USA             50     81 "United St… 1          .3580247      
  # … with 409 more rows, and 17 more variables: PctAgreeBrazil <chr>,
  #   PctAgreeChina <chr>, PctAgreeIndia <chr>, PctAgreeIsrael <chr>,
  #   yObs1 <int>, yObs2 <int>, yObs3 <int>, Idealpoint <dbl>, bornyear <dbl>,
  #   g77 <dbl>, unsc_region <fct>, `Percent agreement with US` <dbl>,
  #   eu28 <chr>, continent <chr>, Region <chr>, YearFct <fct>, mean_ideal <dbl>
```
…
